%!PS-Adobe-3.0 EPSF-3.0
%%Title: cpm_h_big.eps
%%Creator: matplotlib version 0.99.3, http://matplotlib.sourceforge.net/
%%CreationDate: Sun May  6 19:41:08 2012
%%Orientation: portrait
%%BoundingBox: 18 180 594 612
%%EndComments
%%BeginProlog
/mpldict 10 dict def
mpldict begin
/m { moveto } bind def
/l { lineto } bind def
/r { rlineto } bind def
/c { curveto } bind def
/cl { closepath } bind def
/box {
m
1 index 0 r
0 exch r
neg 0 r
cl
} bind def
/clipbox {
box
clip
newpath
} bind def
%!PS-Adobe-3.0 Resource-Font
%%Title: cmmi10
%%Copyright: Copyright (C) 1994, Basil K. Malyshev. All Rights Reserved.012BaKoMa Fonts Collection, Level-B.
%%Creator: Converted from TrueType by PPR
25 dict begin
/_d{bind def}bind def
/_m{moveto}_d
/_l{lineto}_d
/_cl{closepath eofill}_d
/_c{curveto}_d
/_sc{7 -1 roll{setcachedevice}{pop pop pop pop pop pop}ifelse}_d
/_e{exec}_d
/FontName /Cmmi10 def
/PaintType 0 def
/FontMatrix[.001 0 0 .001 0 0]def
/FontBBox[-33 -249 1048 750]def
/FontType 3 def
/Encoding StandardEncoding def
/FontInfo 10 dict dup begin
/FamilyName (cmmi10) def
/FullName (cmmi10) def
/Notice (Copyright (C) 1994, Basil K. Malyshev. All Rights Reserved.012BaKoMa Fonts Collection, Level-B. ) def
/Weight (Regular) def
/Version (1.1/12-Nov-94) def
/ItalicAngle 0.0 def
/isFixedPitch false def
/UnderlinePosition -133 def
/UnderlineThickness 20 def
end readonly def
/CharStrings 13 dict dup begin
/e{{465 0 44 -10 430 442 _sc
201 -10 _m
169 -10 141 -2 117 14 _c
93 30 75 53 63 81 _c
50 109 44 138 44 170 _c
44 217 56 262 80 304 _c
104 346 136 379 177 404 _c
218 429 262 442 309 442 _c
337 442 362 434 384 419 _c
405 404 416 383 416 356 _c
416 317 400 288 370 270 _c
339 251 304 239 266 235 _c
228 231 185 229 139 229 _c
136 229 _l
125 189 120 155 120 127 _c
120 97 126 71 140 49 _c
154 26 175 15 203 15 _c
243 15 281 24 318 42 _c
354 60 384 86 407 118 _c
409 120 411 121 415 121 _c
418 121 421 119 425 115 _c
428 111 430 108 430 105 _c
430 102 429 100 428 99 _c
404 65 371 38 330 19 _c
288 0 245 -10 201 -10 _c
142 255 _m
}_e{180 255 216 256 249 260 _c
282 264 312 273 339 287 _c
365 301 379 324 379 355 _c
379 367 375 378 368 387 _c
361 396 352 403 342 408 _c
331 413 320 416 308 416 _c
280 416 254 408 232 393 _c
209 377 190 357 176 333 _c
161 308 150 282 142 255 _c
_cl}_e}_d
/t{{361 0 22 -10 330 626 _sc
62 81 _m
62 91 63 100 65 109 _c
137 396 _l
32 396 _l
25 396 22 400 22 409 _c
24 423 29 431 35 431 _c
146 431 _l
186 594 _l
188 602 193 610 201 616 _c
209 622 218 626 228 626 _c
236 626 243 623 249 618 _c
255 613 258 606 258 598 _c
258 596 257 594 257 593 _c
257 592 257 591 257 590 _c
217 431 _l
320 431 _l
326 431 330 426 330 418 _c
330 416 329 414 328 410 _c
327 406 326 402 324 400 _c
322 397 320 396 317 396 _c
208 396 _l
136 107 _l
131 88 129 72 129 58 _c
}_e{129 29 138 15 158 15 _c
187 15 213 28 236 56 _c
258 84 276 114 288 147 _c
290 151 293 153 296 153 _c
308 153 _l
310 153 312 152 314 150 _c
316 148 317 146 317 144 _c
317 142 316 141 316 141 _c
301 101 280 65 252 35 _c
224 5 192 -10 156 -10 _c
129 -10 107 -1 89 15 _c
71 32 62 54 62 81 _c
_cl}_e}_d
/i{{344 0 27 -10 296 661 _sc
78 72 _m
78 84 80 97 86 111 _c
167 326 _l
175 350 180 370 180 386 _c
180 406 172 416 158 416 _c
132 416 110 402 93 375 _c
75 347 63 317 55 284 _c
53 280 51 278 47 278 _c
35 278 _l
29 278 27 281 27 287 _c
27 290 _l
37 330 54 365 76 396 _c
98 426 126 442 160 442 _c
184 442 204 434 220 418 _c
236 402 245 383 245 359 _c
245 346 242 333 237 320 _c
156 105 _l
146 83 142 63 142 45 _c
142 25 149 15 165 15 _c
}_e{191 15 212 29 230 57 _c
247 85 259 115 267 147 _c
268 151 271 153 275 153 _c
287 153 _l
289 153 291 152 293 150 _c
295 148 296 146 296 144 _c
296 143 295 142 295 141 _c
285 103 269 68 247 37 _c
224 5 196 -10 163 -10 _c
139 -10 119 -2 103 13 _c
86 29 78 48 78 72 _c
191 606 _m
191 620 196 632 208 644 _c
220 655 233 661 247 661 _c
258 661 267 657 275 650 _c
282 643 286 634 286 624 _c
286 609 280 596 268 585 _c
256 573 243 568 229 568 _c
218 568 209 571 202 579 _c
194 586 191 595 191 606 _c
_cl}_e}_d
/D{{827 0 39 0 803 683 _sc
49 0 _m
42 0 39 4 39 13 _c
39 15 40 18 41 22 _c
41 26 43 29 45 31 _c
47 33 49 35 52 35 _c
92 35 121 37 137 42 _c
145 44 152 53 156 69 _c
293 618 _l
294 624 295 629 295 632 _c
295 639 291 643 283 644 _c
270 646 246 648 211 648 _c
204 648 201 652 201 661 _c
201 663 202 666 203 670 _c
204 674 205 677 207 679 _c
209 681 211 683 214 683 _c
573 683 _l
619 683 660 671 695 649 _c
730 626 757 595 775 557 _c
793 519 803 477 803 431 _c
803 379 792 328 771 277 _c
750 226 720 179 682 137 _c
644 95 600 61 552 37 _c
503 12 453 0 402 0 _c
49 0 _l
236 43 _m
}_e{236 37 247 35 270 35 _c
386 35 _l
423 35 459 42 493 58 _c
527 73 558 94 586 121 _c
611 146 633 179 652 220 _c
671 260 686 303 697 347 _c
707 391 713 432 713 469 _c
713 496 709 520 701 542 _c
693 564 681 582 667 598 _c
653 614 635 626 613 635 _c
591 643 566 648 539 648 _c
429 648 _l
411 648 399 646 393 643 _c
387 640 381 630 377 614 _c
240 65 _l
237 57 236 49 236 43 _c
_cl}_e}_d
/S{{613 0 53 -21 646 705 _sc
61 -21 _m
59 -21 57 -19 55 -17 _c
53 -15 53 -13 53 -11 _c
111 221 _l
112 225 115 227 119 227 _c
131 227 _l
133 227 135 226 137 224 _c
138 222 139 219 139 217 _c
133 194 131 174 131 156 _c
131 107 147 71 180 48 _c
213 24 255 13 306 13 _c
328 13 349 18 370 29 _c
391 39 410 53 426 71 _c
442 88 454 107 464 129 _c
473 150 478 172 478 194 _c
478 217 471 238 459 256 _c
447 274 430 286 408 292 _c
286 324 _l
253 332 227 350 207 377 _c
187 403 178 433 178 467 _c
178 507 190 545 214 582 _c
238 619 269 649 307 671 _c
345 693 384 705 424 705 _c
454 705 482 699 508 688 _c
533 676 553 659 567 635 _c
624 702 _l
628 704 630 705 631 705 _c
}_e{637 705 _l
639 705 641 703 643 701 _c
645 699 646 697 646 695 _c
588 463 _l
586 458 584 456 580 456 _c
568 456 _l
562 456 559 459 559 467 _c
562 488 564 506 564 522 _c
564 552 558 579 548 602 _c
537 625 521 643 500 655 _c
478 667 452 673 421 673 _c
394 673 367 665 341 650 _c
315 634 293 614 277 589 _c
261 563 253 537 253 510 _c
253 488 259 469 272 453 _c
284 436 301 425 322 419 _c
444 387 _l
466 381 485 370 501 356 _c
517 341 530 323 539 303 _c
547 283 552 261 552 237 _c
552 205 545 173 532 143 _c
518 112 500 84 476 59 _c
452 33 424 14 394 0 _c
364 -14 333 -21 302 -21 _c
222 -21 165 2 131 48 _c
75 -18 _l
71 -20 68 -21 68 -21 _c
61 -21 _l
_cl}_e}_d
/f{{489 0 53 -204 552 705 _sc
97 -164 _m
109 -173 124 -178 142 -178 _c
166 -178 185 -151 200 -99 _c
206 -73 223 9 251 151 _c
297 396 _l
211 396 _l
204 396 201 400 201 409 _c
203 423 208 431 214 431 _c
303 431 _l
315 496 _l
319 516 322 533 326 548 _c
329 562 332 576 336 588 _c
340 600 345 614 353 630 _c
364 652 379 670 399 684 _c
418 698 439 705 462 705 _c
476 705 490 702 504 697 _c
518 691 529 683 538 673 _c
547 662 552 649 552 635 _c
552 617 546 602 535 590 _c
523 578 510 572 494 572 _c
483 572 474 575 466 582 _c
458 588 455 597 455 608 _c
455 622 460 635 470 646 _c
480 657 492 663 507 665 _c
}_e{494 674 479 679 461 679 _c
451 679 441 674 432 665 _c
423 655 417 645 415 635 _c
411 617 401 571 387 497 _c
375 431 _l
478 431 _l
484 431 488 426 488 418 _c
487 416 486 413 485 409 _c
484 405 483 401 481 399 _c
479 397 477 396 475 396 _c
368 396 _l
322 152 _l
316 116 309 80 301 44 _c
293 8 283 -29 269 -68 _c
255 -106 238 -139 216 -165 _c
194 -191 169 -204 140 -204 _c
117 -204 97 -197 79 -185 _c
61 -172 53 -155 53 -134 _c
53 -116 58 -101 69 -89 _c
80 -77 94 -71 111 -71 _c
121 -71 130 -74 138 -81 _c
146 -87 150 -96 150 -107 _c
150 -121 144 -134 134 -146 _c
123 -158 111 -164 97 -164 _c
_cl}_e}_d
/s{{468 0 52 -10 419 442 _sc
87 61 _m
105 30 141 15 195 15 _c
218 15 240 19 261 27 _c
282 35 300 47 314 63 _c
328 79 335 98 335 121 _c
335 138 328 152 316 163 _c
304 174 289 182 271 186 _c
217 197 _l
192 203 172 214 156 231 _c
140 248 132 269 132 293 _c
132 322 140 348 156 371 _c
172 394 193 412 219 424 _c
245 436 273 442 302 442 _c
332 442 359 434 383 420 _c
407 405 419 384 419 356 _c
419 340 414 327 406 315 _c
397 303 385 298 370 298 _c
361 298 353 300 347 306 _c
341 312 338 319 338 328 _c
338 336 340 343 344 351 _c
348 358 354 364 362 368 _c
369 372 377 375 385 375 _c
379 389 368 399 352 406 _c
336 412 318 416 300 416 _c
282 416 265 412 249 406 _c
232 399 218 389 208 376 _c
198 362 193 347 193 329 _c
193 317 197 306 205 297 _c
213 288 224 282 237 278 _c
}_e{295 266 _l
313 262 330 255 346 245 _c
361 235 373 222 382 207 _c
391 192 396 175 396 156 _c
396 131 389 106 375 82 _c
361 58 344 39 324 25 _c
288 1 245 -10 194 -10 _c
158 -10 126 -2 96 14 _c
66 30 52 54 52 86 _c
52 104 57 119 67 133 _c
77 147 92 154 111 154 _c
121 154 130 150 138 144 _c
145 137 149 128 149 118 _c
149 102 143 89 132 78 _c
120 66 107 61 92 61 _c
87 61 _l
_cl}_e}_d
/l{{298 0 44 -10 262 694 _sc
44 81 _m
44 83 44 86 44 90 _c
44 94 45 97 46 101 _c
46 105 47 108 47 110 _c
171 605 _l
173 616 175 625 176 632 _c
176 642 154 648 111 648 _c
104 648 101 652 101 661 _c
101 663 102 666 103 670 _c
104 674 105 677 107 679 _c
109 681 111 683 115 683 _c
250 694 _l
258 694 262 689 262 681 _c
118 106 _l
113 95 111 79 111 58 _c
111 29 120 15 140 15 _c
160 15 176 27 186 53 _c
196 79 206 110 214 147 _c
215 151 218 153 222 153 _c
234 153 _l
236 153 238 151 240 149 _c
242 147 243 145 243 143 _c
}_e{235 111 227 85 221 67 _c
215 48 205 30 191 14 _c
177 -2 159 -10 138 -10 _c
111 -10 89 -1 71 15 _c
53 32 44 54 44 81 _c
_cl}_e}_d
/T{{584 0 24 0 706 683 _sc
46 13 _m
46 15 46 18 48 22 _c
49 26 50 29 52 31 _c
54 33 56 35 60 35 _c
117 35 155 36 174 40 _c
192 44 202 54 206 69 _c
343 618 _l
345 626 347 633 347 640 _c
347 645 335 648 312 648 _c
254 648 _l
209 648 174 641 150 627 _c
126 613 108 595 97 573 _c
85 551 71 514 53 463 _c
51 457 47 454 43 454 _c
34 454 _l
27 454 24 458 24 467 _c
95 674 _l
96 680 99 683 105 683 _c
696 683 _l
702 683 706 678 706 670 _c
673 463 _l
}_e{673 461 671 459 669 457 _c
667 455 665 454 663 454 _c
654 454 _l
647 454 644 458 644 467 _c
651 514 655 547 655 567 _c
655 590 650 608 640 620 _c
630 632 617 639 602 643 _c
586 646 566 648 541 648 _c
482 648 _l
464 648 452 646 446 643 _c
440 639 434 630 430 614 _c
293 65 _l
292 63 292 62 292 61 _c
292 59 291 58 291 56 _c
291 47 296 42 306 40 _c
323 36 360 35 417 35 _c
423 35 427 30 427 22 _c
424 12 422 6 421 4 _c
419 1 416 0 410 0 _c
56 0 _l
49 0 46 4 46 13 _c
_cl}_e}_d
/a{{528 0 38 -10 501 442 _sc
174 -10 _m
132 -10 98 5 74 37 _c
50 68 38 105 38 149 _c
38 191 49 236 71 282 _c
93 328 122 366 160 396 _c
198 426 238 442 282 442 _c
302 442 319 436 335 426 _c
351 415 363 400 372 382 _c
379 408 394 422 416 422 _c
424 422 431 419 437 414 _c
443 409 446 402 446 394 _c
446 392 445 390 445 389 _c
445 388 445 387 445 386 _c
375 107 _l
370 87 368 70 368 58 _c
368 29 377 15 397 15 _c
417 15 433 28 444 55 _c
455 81 464 112 472 147 _c
473 151 476 153 480 153 _c
492 153 _l
494 153 496 151 498 149 _c
500 147 501 145 501 143 _c
}_e{489 96 476 59 462 31 _c
448 3 426 -10 395 -10 _c
372 -10 352 -3 335 9 _c
318 21 307 39 303 61 _c
260 13 217 -10 174 -10 _c
175 15 _m
199 15 222 24 245 42 _c
267 60 287 81 303 106 _c
303 106 304 107 304 109 _c
358 326 _l
359 329 _l
355 353 346 373 333 390 _c
319 407 302 416 280 416 _c
257 416 236 406 217 388 _c
197 370 181 348 168 323 _c
154 296 142 259 130 213 _c
118 167 113 131 113 105 _c
113 81 118 60 128 42 _c
138 24 153 15 175 15 _c
_cl}_e}_d
/n{{600 0 27 -10 574 442 _sc
77 17 _m
77 21 77 24 78 26 _c
153 324 _l
157 342 160 359 160 373 _c
160 401 150 416 131 416 _c
110 416 94 403 84 378 _c
74 353 64 322 55 284 _c
55 282 54 280 52 279 _c
50 278 48 278 47 278 _c
35 278 _l
33 278 31 279 29 281 _c
27 283 27 286 27 288 _c
34 317 41 342 48 362 _c
54 382 65 400 79 417 _c
93 433 110 442 132 442 _c
156 442 178 434 198 418 _c
217 402 227 382 227 358 _c
247 384 270 404 297 419 _c
323 434 352 442 382 442 _c
405 442 425 437 443 429 _c
460 421 473 408 483 392 _c
493 376 498 356 498 334 _c
498 306 491 273 479 235 _c
467 196 452 153 434 105 _c
}_e{424 83 420 63 420 45 _c
420 25 427 15 443 15 _c
469 15 490 29 508 57 _c
525 85 537 115 545 147 _c
546 151 549 153 553 153 _c
565 153 _l
567 153 569 152 571 150 _c
573 148 574 146 574 144 _c
574 143 573 142 573 141 _c
564 103 548 68 526 37 _c
503 5 475 -10 441 -10 _c
417 -10 397 -2 381 13 _c
364 29 356 48 356 72 _c
356 84 358 97 364 111 _c
372 133 381 159 392 189 _c
403 219 412 247 419 275 _c
426 303 430 327 430 349 _c
430 367 426 383 418 396 _c
410 409 398 416 380 416 _c
355 416 332 410 312 400 _c
292 389 274 375 259 357 _c
243 339 229 318 217 294 _c
149 22 _l
147 12 142 5 134 -1 _c
126 -7 117 -10 107 -10 _c
}_e{99 -10 92 -7 86 -3 _c
80 1 77 8 77 17 _c
_cl}_e}_d
/p{{503 0 -33 -193 491 442 _sc
-24 -193 _m
-30 -193 -33 -188 -33 -180 _c
-31 -165 -26 -158 -20 -158 _c
0 -158 14 -156 22 -152 _c
30 -148 37 -139 42 -124 _c
155 325 _l
159 337 162 353 162 373 _c
162 401 152 416 133 416 _c
112 416 96 403 86 378 _c
76 353 66 322 57 284 _c
57 280 54 278 49 278 _c
37 278 _l
35 278 34 279 32 281 _c
30 283 29 286 29 288 _c
36 317 43 342 50 362 _c
56 382 67 400 81 417 _c
95 433 112 442 134 442 _c
156 442 176 435 194 422 _c
211 409 222 392 227 370 _c
245 391 265 408 287 422 _c
309 435 332 442 356 442 _c
}_e{384 442 408 434 429 419 _c
449 404 465 384 475 360 _c
485 336 491 310 491 282 _c
491 239 480 195 458 149 _c
436 103 406 65 369 35 _c
331 5 291 -10 248 -10 _c
228 -10 211 -4 195 6 _c
179 16 166 31 158 49 _c
113 -128 _l
111 -138 110 -143 110 -145 _c
110 -153 132 -158 176 -158 _c
182 -158 186 -162 186 -171 _c
184 -179 182 -185 180 -188 _c
178 -191 175 -193 169 -193 _c
-24 -193 _l
249 15 _m
272 15 293 24 313 43 _c
333 62 349 84 362 108 _c
370 126 379 147 387 173 _c
395 199 402 226 408 256 _c
414 285 417 308 417 326 _c
417 341 415 355 411 369 _c
407 382 400 393 391 402 _c
381 411 369 416 354 416 _c
329 416 306 407 284 390 _c
262 372 243 351 226 325 _c
226 322 _l
171 101 _l
}_e{175 77 184 56 197 40 _c
210 23 227 15 249 15 _c
_cl}_e}_d
/r{{451 0 27 -10 434 442 _sc
77 17 _m
77 21 77 24 78 26 _c
153 324 _l
157 342 160 359 160 373 _c
160 401 150 416 131 416 _c
110 416 94 403 84 378 _c
74 353 64 322 55 284 _c
55 282 54 280 52 279 _c
50 278 48 278 47 278 _c
35 278 _l
33 278 31 279 29 281 _c
27 283 27 286 27 288 _c
34 317 41 342 48 362 _c
54 382 65 400 79 417 _c
93 433 110 442 132 442 _c
155 442 175 435 193 422 _c
210 408 221 391 225 369 _c
241 391 260 408 282 422 _c
304 435 328 442 354 442 _c
375 442 394 435 410 423 _c
426 411 434 394 434 373 _c
434 356 428 341 418 329 _c
407 316 393 310 376 310 _c
}_e{365 310 356 313 349 320 _c
341 326 338 335 338 346 _c
338 360 343 373 354 385 _c
364 397 377 403 391 403 _c
380 411 367 416 352 416 _c
323 416 298 405 277 385 _c
256 365 237 339 220 308 _c
149 22 _l
147 12 142 5 134 -1 _c
126 -7 117 -10 107 -10 _c
99 -10 92 -7 86 -3 _c
80 1 77 8 77 17 _c
_cl}_e}_d
end readonly def

/BuildGlyph
 {exch begin
 CharStrings exch
 2 copy known not{pop /.notdef}if
 true 3 1 roll get exec
 end}_d

/BuildChar {
 1 index /Encoding get exch get
 1 index /BuildGlyph get exec
}_d

FontName currentdict end definefont pop
%!PS-Adobe-3.0 Resource-Font
%%Title: cmr10
%%Copyright: Copyright (C) 1994, Basil K. Malyshev. All Rights Reserved.012BaKoMa Fonts Collection, Level-B.
%%Creator: Converted from TrueType by PPR
25 dict begin
/_d{bind def}bind def
/_m{moveto}_d
/_l{lineto}_d
/_cl{closepath eofill}_d
/_c{curveto}_d
/_sc{7 -1 roll{setcachedevice}{pop pop pop pop pop pop}ifelse}_d
/_e{exec}_d
/FontName /Cmr10 def
/PaintType 0 def
/FontMatrix[.001 0 0 .001 0 0]def
/FontBBox[-43 -249 1009 750]def
/FontType 3 def
/Encoding StandardEncoding def
/FontInfo 10 dict dup begin
/FamilyName (cmr10) def
/FullName (cmr10) def
/Notice (Copyright (C) 1994, Basil K. Malyshev. All Rights Reserved.012BaKoMa Fonts Collection, Level-B. ) def
/Weight (Regular) def
/Version (1.1/12-Nov-94) def
/ItalicAngle 0.0 def
/isFixedPitch false def
/UnderlinePosition -133 def
/UnderlineThickness 20 def
end readonly def
/CharStrings 1 dict dup begin
/grave{500 0 107 509 294 698 _sc
121 632 _m
111 640 107 650 107 660 _c
107 670 110 679 118 687 _c
125 694 134 698 145 698 _c
156 698 166 693 174 683 _c
294 529 _l
273 509 _l
121 632 _l
_cl}_d
end readonly def

/BuildGlyph
 {exch begin
 CharStrings exch
 2 copy known not{pop /.notdef}if
 true 3 1 roll get exec
 end}_d

/BuildChar {
 1 index /Encoding get exch get
 1 index /BuildGlyph get exec
}_d

FontName currentdict end definefont pop
%!PS-Adobe-3.0 Resource-Font
%%Title: DejaVu Sans
%%Copyright: Copyright (c) 2003 by Bitstream, Inc. All Rights Reserved. Copyright (c) 2006 by Tavmjong Bah. All Rights Reserved. DejaVu changes are in public domain 
%%Creator: Converted from TrueType by PPR
25 dict begin
/_d{bind def}bind def
/_m{moveto}_d
/_l{lineto}_d
/_cl{closepath eofill}_d
/_c{curveto}_d
/_sc{7 -1 roll{setcachedevice}{pop pop pop pop pop pop}ifelse}_d
/_e{exec}_d
/FontName /DejaVuSans def
/PaintType 0 def
/FontMatrix[.001 0 0 .001 0 0]def
/FontBBox[-1020 -414 1681 1167]def
/FontType 3 def
/Encoding StandardEncoding def
/FontInfo 10 dict dup begin
/FamilyName (DejaVu Sans) def
/FullName (DejaVu Sans) def
/Notice (Copyright (c) 2003 by Bitstream, Inc. All Rights Reserved. Copyright (c) 2006 by Tavmjong Bah. All Rights Reserved. DejaVu changes are in public domain ) def
/Weight (Book) def
/Version (Version 2.31) def
/ItalicAngle 0.0 def
/isFixedPitch false def
/UnderlinePosition -130 def
/UnderlineThickness 90 def
end readonly def
/CharStrings 9 dict dup begin
/period{318 0 107 0 210 124 _sc
107 124 _m
210 124 _l
210 0 _l
107 0 _l
107 124 _l
_cl}_d
/zero{636 0 66 -13 570 742 _sc
318 664 _m
267 664 229 639 203 589 _c
177 539 165 464 165 364 _c
165 264 177 189 203 139 _c
229 89 267 64 318 64 _c
369 64 407 89 433 139 _c
458 189 471 264 471 364 _c
471 464 458 539 433 589 _c
407 639 369 664 318 664 _c
318 742 _m
399 742 461 709 505 645 _c
548 580 570 486 570 364 _c
570 241 548 147 505 83 _c
461 19 399 -13 318 -13 _c
236 -13 173 19 130 83 _c
87 147 66 241 66 364 _c
66 486 87 580 130 645 _c
173 709 236 742 318 742 _c
_cl}_d
/one{636 0 110 0 544 729 _sc
124 83 _m
285 83 _l
285 639 _l
110 604 _l
110 694 _l
284 729 _l
383 729 _l
383 83 _l
544 83 _l
544 0 _l
124 0 _l
124 83 _l
_cl}_d
/two{{636 0 73 0 536 742 _sc
192 83 _m
536 83 _l
536 0 _l
73 0 _l
73 83 _l
110 121 161 173 226 239 _c
290 304 331 346 348 365 _c
380 400 402 430 414 455 _c
426 479 433 504 433 528 _c
433 566 419 598 392 622 _c
365 646 330 659 286 659 _c
255 659 222 653 188 643 _c
154 632 117 616 78 594 _c
78 694 _l
118 710 155 722 189 730 _c
223 738 255 742 284 742 _c
359 742 419 723 464 685 _c
509 647 532 597 532 534 _c
532 504 526 475 515 449 _c
504 422 484 390 454 354 _c
446 344 420 317 376 272 _c
332 227 271 164 192 83 _c
_cl}_e}_d
/three{{636 0 76 -13 556 742 _sc
406 393 _m
453 383 490 362 516 330 _c
542 298 556 258 556 212 _c
556 140 531 84 482 45 _c
432 6 362 -13 271 -13 _c
240 -13 208 -10 176 -4 _c
144 1 110 10 76 22 _c
76 117 _l
103 101 133 89 166 81 _c
198 73 232 69 268 69 _c
330 69 377 81 409 105 _c
441 129 458 165 458 212 _c
458 254 443 288 413 312 _c
383 336 341 349 287 349 _c
202 349 _l
202 430 _l
291 430 _l
339 430 376 439 402 459 _c
428 478 441 506 441 543 _c
441 580 427 609 401 629 _c
374 649 336 659 287 659 _c
260 659 231 656 200 650 _c
169 644 135 635 98 623 _c
98 711 _l
135 721 170 729 203 734 _c
235 739 266 742 296 742 _c
}_e{370 742 429 725 473 691 _c
517 657 539 611 539 553 _c
539 513 527 479 504 451 _c
481 423 448 403 406 393 _c
_cl}_e}_d
/five{{636 0 77 -13 549 729 _sc
108 729 _m
495 729 _l
495 646 _l
198 646 _l
198 467 _l
212 472 227 476 241 478 _c
255 480 270 482 284 482 _c
365 482 429 459 477 415 _c
525 370 549 310 549 234 _c
549 155 524 94 475 51 _c
426 8 357 -13 269 -13 _c
238 -13 207 -10 175 -6 _c
143 -1 111 6 77 17 _c
77 116 _l
106 100 136 88 168 80 _c
199 72 232 69 267 69 _c
323 69 368 83 401 113 _c
433 143 450 183 450 234 _c
450 284 433 324 401 354 _c
368 384 323 399 267 399 _c
241 399 214 396 188 390 _c
162 384 135 375 108 363 _c
108 729 _l
_cl}_e}_d
/nine{{636 0 63 -13 566 742 _sc
110 15 _m
110 105 _l
134 93 159 84 185 78 _c
210 72 235 69 260 69 _c
324 69 374 90 408 134 _c
442 178 462 244 468 334 _c
448 306 424 284 396 269 _c
367 254 335 247 300 247 _c
226 247 168 269 126 313 _c
84 357 63 417 63 494 _c
63 568 85 628 129 674 _c
173 719 232 742 306 742 _c
390 742 455 709 499 645 _c
543 580 566 486 566 364 _c
566 248 538 157 484 89 _c
429 21 356 -13 264 -13 _c
239 -13 214 -10 189 -6 _c
163 -2 137 5 110 15 _c
306 324 _m
350 324 385 339 411 369 _c
437 399 450 441 450 494 _c
450 546 437 588 411 618 _c
385 648 350 664 306 664 _c
262 664 227 648 201 618 _c
175 588 162 546 162 494 _c
}_e{162 441 175 399 201 369 _c
227 339 262 324 306 324 _c
_cl}_e}_d
/equal{838 0 106 172 732 454 _sc
106 454 _m
732 454 _l
732 372 _l
106 372 _l
106 454 _l
106 255 _m
732 255 _l
732 172 _l
106 172 _l
106 255 _l
_cl}_d
/h{634 0 91 0 549 760 _sc
549 330 _m
549 0 _l
459 0 _l
459 327 _l
459 379 448 417 428 443 _c
408 469 378 482 338 482 _c
289 482 251 466 223 435 _c
195 404 181 362 181 309 _c
181 0 _l
91 0 _l
91 760 _l
181 760 _l
181 462 _l
202 494 227 519 257 535 _c
286 551 320 560 358 560 _c
420 560 468 540 500 501 _c
532 462 549 405 549 330 _c
_cl}_d
end readonly def

/BuildGlyph
 {exch begin
 CharStrings exch
 2 copy known not{pop /.notdef}if
 true 3 1 roll get exec
 end}_d

/BuildChar {
 1 index /Encoding get exch get
 1 index /BuildGlyph get exec
}_d

FontName currentdict end definefont pop
end
%%EndProlog
mpldict begin
18 180 translate
576 432 0 0 clipbox
1.000 setlinewidth
1 setlinejoin
2 setlinecap
[] 0 setdash
1.000 setgray
gsave
0 0 m
576 0 l
576 432 l
0 432 l
0 0 l
gsave
fill
grestore
stroke
grestore
gsave
72 43.2 m
518.4 43.2 l
518.4 388.8 l
72 388.8 l
72 43.2 l
fill
grestore
0.000 setgray
gsave
446.4 345.6 72 43.2 clipbox
72 58.7629 m
76.4864 58.538 l
83.2161 57.3894 l
89.9457 55.3965 l
98.9186 51.8529 l
112.378 46.3042 l
119.108 44.2773 l
123.594 43.4651 l
128.08 43.2012 l
132.567 43.5688 l
137.053 44.6322 l
141.54 46.4343 l
146.026 48.9944 l
150.513 52.3068 l
154.999 56.3413 l
161.729 63.6207 l
168.458 72.1169 l
177.431 84.6778 l
193.134 106.957 l
199.863 115.36 l
206.593 122.433 l
211.079 126.231 l
215.566 129.197 l
220.052 131.273 l
224.539 132.421 l
229.025 132.628 l
233.512 131.904 l
237.998 130.283 l
242.484 127.817 l
246.971 124.578 l
251.457 120.653 l
258.187 113.705 l
267.16 103.048 l
291.835 72.5776 l
298.565 65.493 l
305.294 59.3524 l
312.024 54.2553 l
318.754 50.2281 l
325.483 47.2322 l
332.213 45.1752 l
338.943 43.9247 l
345.672 43.3242 l
354.645 43.2477 l
368.105 43.9365 l
388.293 44.9725 l
403.996 44.9975 l
424.185 44.2328 l
451.104 43.2923 l
473.536 43.2632 l
518.4 43.6167 l
518.4 43.6167 l
stroke
grestore
gsave
446.4 345.6 72 43.2 clipbox
72 52.8999 m
74.2432 46.6569 l
76.4864 44.1292 l
78.7296 43.4573 l
83.2161 43.2 l
92.1889 43.5841 l
105.648 44.9331 l
119.108 46.935 l
134.81 49.9345 l
154.999 54.5461 l
197.62 65.2976 l
246.971 77.8872 l
253.701 80.2731 l
260.43 83.3875 l
264.917 86.1882 l
269.403 90.0097 l
271.646 92.5219 l
273.889 95.6342 l
276.133 99.5946 l
278.376 104.8 l
280.619 111.924 l
282.862 122.198 l
285.106 138.101 l
287.349 165.319 l
289.592 219.534 l
291.835 356.325 l
292.248 432 l
296.839 432 m
298.565 130.641 l
300.808 61.5603 l
303.051 46.6415 l
305.294 43.4174 l
307.538 43.3772 l
312.024 45.3619 l
318.754 48.2622 l
325.483 50.1263 l
332.213 51.1946 l
341.186 51.8087 l
352.402 51.7753 l
368.105 50.9153 l
397.266 48.3982 l
430.915 45.6636 l
457.833 44.19 l
484.752 43.4117 l
511.67 43.2236 l
516.157 43.5011 l
518.4 44.0235 l
518.4 44.0235 l
stroke
grestore
gsave
446.4 345.6 72 43.2 clipbox
72 49.8194 m
76.4864 49.2373 l
83.2161 47.0351 l
89.9457 44.9419 l
96.6754 43.6968 l
103.405 43.2243 l
112.378 43.4285 l
123.594 44.5141 l
139.296 46.8423 l
172.945 52.1355 l
186.404 53.4826 l
197.62 53.9494 l
208.836 53.6626 l
217.809 52.8079 l
226.782 51.3552 l
235.755 49.3177 l
258.187 43.4715 l
262.673 43.2242 l
264.917 43.5024 l
267.16 44.1756 l
269.403 45.3741 l
271.646 47.2631 l
273.889 50.0491 l
276.133 53.9821 l
278.376 59.3513 l
280.619 66.4648 l
282.862 75.6037 l
285.106 86.9398 l
289.592 115.609 l
294.078 147.292 l
296.322 161.116 l
298.565 171.942 l
300.808 179.108 l
303.051 182.577 l
305.294 182.804 l
307.538 180.504 l
309.781 176.43 l
314.267 165.452 l
323.24 141.95 l
327.727 131.633 l
332.213 122.536 l
336.699 114.553 l
341.186 107.53 l
347.916 98.4725 l
354.645 90.8177 l
361.375 84.2526 l
368.105 78.5524 l
374.834 73.5568 l
383.807 67.797 l
392.78 62.8959 l
401.753 58.7222 l
410.726 55.1824 l
421.942 51.542 l
433.158 48.6723 l
444.374 46.483 l
455.59 44.8966 l
469.049 43.6994 l
482.509 43.212 l
495.968 43.4689 l
518.4 44.8149 l
518.4 44.8149 l
stroke
grestore
0.500 setlinewidth
0 setlinecap
gsave
/o {
gsave
newpath
translate
0 0 m
0 4 l
stroke
grestore
} bind def
72 43.2 o
grestore
gsave
/o {
gsave
newpath
translate
0 0 m
0 -4 l
stroke
grestore
} bind def
72 388.8 o
grestore
/DejaVuSans findfont
12.000 scalefont
setfont
gsave
63.250000 30.121875 translate
0.000000 rotate
0.000000 0.171875 m /zero glyphshow
7.634766 0.171875 m /period glyphshow
11.449219 0.171875 m /zero glyphshow
grestore
gsave
/o {
gsave
newpath
translate
0 0 m
0 4 l
stroke
grestore
} bind def
183.6 43.2 o
grestore
gsave
/o {
gsave
newpath
translate
0 0 m
0 -4 l
stroke
grestore
} bind def
183.6 388.8 o
grestore
gsave
174.975000 30.121875 translate
0.000000 rotate
0.000000 0.171875 m /zero glyphshow
7.634766 0.171875 m /period glyphshow
11.449219 0.171875 m /five glyphshow
grestore
gsave
/o {
gsave
newpath
translate
0 0 m
0 4 l
stroke
grestore
} bind def
295.2 43.2 o
grestore
gsave
/o {
gsave
newpath
translate
0 0 m
0 -4 l
stroke
grestore
} bind def
295.2 388.8 o
grestore
gsave
286.707812 30.121875 translate
0.000000 rotate
0.000000 0.171875 m /one glyphshow
7.634766 0.171875 m /period glyphshow
11.449219 0.171875 m /zero glyphshow
grestore
gsave
/o {
gsave
newpath
translate
0 0 m
0 4 l
stroke
grestore
} bind def
406.8 43.2 o
grestore
gsave
/o {
gsave
newpath
translate
0 0 m
0 -4 l
stroke
grestore
} bind def
406.8 388.8 o
grestore
gsave
398.432812 30.278125 translate
0.000000 rotate
0.000000 0.171875 m /one glyphshow
7.634766 0.171875 m /period glyphshow
11.449219 0.171875 m /five glyphshow
grestore
gsave
/o {
gsave
newpath
translate
0 0 m
0 4 l
stroke
grestore
} bind def
518.4 43.2 o
grestore
gsave
/o {
gsave
newpath
translate
0 0 m
0 -4 l
stroke
grestore
} bind def
518.4 388.8 o
grestore
gsave
509.689062 30.121875 translate
0.000000 rotate
0.000000 0.171875 m /two glyphshow
7.634766 0.171875 m /period glyphshow
11.449219 0.171875 m /zero glyphshow
grestore
gsave
288.700000 13.121875 translate
0.000000 rotate
/Cmmi10 findfont
12.0 scalefont
setfont
0.000000 3.531250 moveto
/f glyphshow

5.865234 3.531250 moveto
/T glyphshow


grestore
gsave
/o {
gsave
newpath
translate
0 0 m
4 0 l
stroke
grestore
} bind def
72 43.2 o
grestore
gsave
/o {
gsave
newpath
translate
0 0 m
-4 0 l
stroke
grestore
} bind def
518.4 43.2 o
grestore
gsave
50.500000 38.660937 translate
0.000000 rotate
0.000000 0.171875 m /zero glyphshow
7.634766 0.171875 m /period glyphshow
11.449219 0.171875 m /zero glyphshow
grestore
gsave
/o {
gsave
newpath
translate
0 0 m
4 0 l
stroke
grestore
} bind def
72 129.6 o
grestore
gsave
/o {
gsave
newpath
translate
0 0 m
-4 0 l
stroke
grestore
} bind def
518.4 129.6 o
grestore
gsave
50.750000 125.060937 translate
0.000000 rotate
0.000000 0.171875 m /zero glyphshow
7.634766 0.171875 m /period glyphshow
11.449219 0.171875 m /five glyphshow
grestore
gsave
/o {
gsave
newpath
translate
0 0 m
4 0 l
stroke
grestore
} bind def
72 216 o
grestore
gsave
/o {
gsave
newpath
translate
0 0 m
-4 0 l
stroke
grestore
} bind def
518.4 216 o
grestore
gsave
51.015625 211.460938 translate
0.000000 rotate
0.000000 0.171875 m /one glyphshow
7.634766 0.171875 m /period glyphshow
11.449219 0.171875 m /zero glyphshow
grestore
gsave
/o {
gsave
newpath
translate
0 0 m
4 0 l
stroke
grestore
} bind def
72 302.4 o
grestore
gsave
/o {
gsave
newpath
translate
0 0 m
-4 0 l
stroke
grestore
} bind def
518.4 302.4 o
grestore
gsave
51.265625 297.939063 translate
0.000000 rotate
0.000000 0.171875 m /one glyphshow
7.634766 0.171875 m /period glyphshow
11.449219 0.171875 m /five glyphshow
grestore
gsave
/o {
gsave
newpath
translate
0 0 m
4 0 l
stroke
grestore
} bind def
72 388.8 o
grestore
gsave
/o {
gsave
newpath
translate
0 0 m
-4 0 l
stroke
grestore
} bind def
518.4 388.8 o
grestore
gsave
50.578125 384.260938 translate
0.000000 rotate
0.000000 0.171875 m /two glyphshow
7.634766 0.171875 m /period glyphshow
11.449219 0.171875 m /zero glyphshow
grestore
gsave
45.500000 168.000000 translate
90.000000 rotate
/Cmmi10 findfont
12.0 scalefont
setfont
0.000000 3.937500 moveto
/D glyphshow

9.925781 3.937500 moveto
/e glyphshow

15.503906 3.937500 moveto
/n glyphshow

22.705078 3.937500 moveto
/s glyphshow

28.318359 3.937500 moveto
/i glyphshow

32.449219 3.937500 moveto
/t glyphshow

/Cmr10 findfont
12.0 scalefont
setfont
37.498047 4.625000 moveto
/grave glyphshow

/Cmmi10 findfont
12.0 scalefont
setfont
36.779297 3.937500 moveto
/a glyphshow

47.327344 3.937500 moveto
/S glyphshow

54.680859 3.937500 moveto
/p glyphshow

60.716016 3.937500 moveto
/e glyphshow

66.294141 3.937500 moveto
/t glyphshow

70.624219 3.937500 moveto
/t glyphshow

74.954297 3.937500 moveto
/r glyphshow

80.368359 3.937500 moveto
/a glyphshow

86.702344 3.937500 moveto
/l glyphshow

90.276562 3.937500 moveto
/e glyphshow


grestore
1.000 setlinewidth
2 setlinecap
gsave
72 388.8 m
518.4 388.8 l
stroke
grestore
gsave
518.4 43.2 m
518.4 388.8 l
stroke
grestore
gsave
72 43.2 m
518.4 43.2 l
stroke
grestore
gsave
72 43.2 m
72 388.8 l
stroke
grestore
183.6 138.24 m
0 0.172 rmoveto
(h=1.5) show
306.36 267.84 m
0 0.172 rmoveto
(h=1.9) show
339.84 138.24 m
0 0.172 rmoveto
(h=2.3) show

end
showpage
