%!PS-Adobe-3.0 EPSF-3.0
%%Title: cpm_rcrec_L1.eps
%%Creator: matplotlib version 0.99.3, http://matplotlib.sourceforge.net/
%%CreationDate: Mon May  7 16:48:42 2012
%%Orientation: portrait
%%BoundingBox: 18 180 594 612
%%EndComments
%%BeginProlog
/mpldict 11 dict def
mpldict begin
/m { moveto } bind def
/l { lineto } bind def
/r { rlineto } bind def
/c { curveto } bind def
/cl { closepath } bind def
/box {
m
1 index 0 r
0 exch r
neg 0 r
cl
} bind def
/clipbox {
box
clip
newpath
} bind def
%!PS-Adobe-3.0 Resource-Font
%%Title: cmmi10
%%Copyright: Copyright (C) 1994, Basil K. Malyshev. All Rights Reserved.012BaKoMa Fonts Collection, Level-B.
%%Creator: Converted from TrueType by PPR
25 dict begin
/_d{bind def}bind def
/_m{moveto}_d
/_l{lineto}_d
/_cl{closepath eofill}_d
/_c{curveto}_d
/_sc{7 -1 roll{setcachedevice}{pop pop pop pop pop pop}ifelse}_d
/_e{exec}_d
/FontName /Cmmi10 def
/PaintType 0 def
/FontMatrix[.001 0 0 .001 0 0]def
/FontBBox[-33 -249 1048 750]def
/FontType 3 def
/Encoding StandardEncoding def
/FontInfo 10 dict dup begin
/FamilyName (cmmi10) def
/FullName (cmmi10) def
/Notice (Copyright (C) 1994, Basil K. Malyshev. All Rights Reserved.012BaKoMa Fonts Collection, Level-B. ) def
/Weight (Regular) def
/Version (1.1/12-Nov-94) def
/ItalicAngle 0.0 def
/isFixedPitch false def
/UnderlinePosition -133 def
/UnderlineThickness 20 def
end readonly def
/CharStrings 15 dict dup begin
/e{{465 0 44 -10 430 442 _sc
201 -10 _m
169 -10 141 -2 117 14 _c
93 30 75 53 63 81 _c
50 109 44 138 44 170 _c
44 217 56 262 80 304 _c
104 346 136 379 177 404 _c
218 429 262 442 309 442 _c
337 442 362 434 384 419 _c
405 404 416 383 416 356 _c
416 317 400 288 370 270 _c
339 251 304 239 266 235 _c
228 231 185 229 139 229 _c
136 229 _l
125 189 120 155 120 127 _c
120 97 126 71 140 49 _c
154 26 175 15 203 15 _c
243 15 281 24 318 42 _c
354 60 384 86 407 118 _c
409 120 411 121 415 121 _c
418 121 421 119 425 115 _c
428 111 430 108 430 105 _c
430 102 429 100 428 99 _c
404 65 371 38 330 19 _c
288 0 245 -10 201 -10 _c
142 255 _m
}_e{180 255 216 256 249 260 _c
282 264 312 273 339 287 _c
365 301 379 324 379 355 _c
379 367 375 378 368 387 _c
361 396 352 403 342 408 _c
331 413 320 416 308 416 _c
280 416 254 408 232 393 _c
209 377 190 357 176 333 _c
161 308 150 282 142 255 _c
_cl}_e}_d
/t{{361 0 22 -10 330 626 _sc
62 81 _m
62 91 63 100 65 109 _c
137 396 _l
32 396 _l
25 396 22 400 22 409 _c
24 423 29 431 35 431 _c
146 431 _l
186 594 _l
188 602 193 610 201 616 _c
209 622 218 626 228 626 _c
236 626 243 623 249 618 _c
255 613 258 606 258 598 _c
258 596 257 594 257 593 _c
257 592 257 591 257 590 _c
217 431 _l
320 431 _l
326 431 330 426 330 418 _c
330 416 329 414 328 410 _c
327 406 326 402 324 400 _c
322 397 320 396 317 396 _c
208 396 _l
136 107 _l
131 88 129 72 129 58 _c
}_e{129 29 138 15 158 15 _c
187 15 213 28 236 56 _c
258 84 276 114 288 147 _c
290 151 293 153 296 153 _c
308 153 _l
310 153 312 152 314 150 _c
316 148 317 146 317 144 _c
317 142 316 141 316 141 _c
301 101 280 65 252 35 _c
224 5 192 -10 156 -10 _c
129 -10 107 -1 89 15 _c
71 32 62 54 62 81 _c
_cl}_e}_d
/B{{758 0 40 0 756 683 _sc
50 0 _m
43 0 40 4 40 13 _c
40 15 41 17 42 21 _c
42 25 43 28 45 31 _c
47 33 49 35 53 35 _c
72 35 89 35 103 36 _c
117 37 128 39 138 42 _c
146 44 152 53 157 69 _c
294 618 _l
295 624 296 629 296 632 _c
296 639 292 643 284 644 _c
271 646 247 648 212 648 _c
205 648 202 652 202 661 _c
202 663 203 666 204 670 _c
205 674 206 677 208 679 _c
210 681 212 683 215 683 _c
573 683 _l
595 683 616 680 638 675 _c
659 669 679 661 697 649 _c
715 637 729 623 740 606 _c
750 588 756 568 756 545 _c
756 519 749 496 736 475 _c
723 453 706 435 686 419 _c
666 403 644 389 620 379 _c
596 369 572 361 547 357 _c
}_e{565 357 583 353 602 346 _c
620 338 637 328 652 316 _c
666 304 678 289 687 272 _c
696 255 701 237 701 217 _c
701 177 687 140 659 107 _c
631 73 595 47 553 28 _c
511 9 470 0 430 0 _c
50 0 _l
234 43 _m
234 37 245 35 268 35 _c
411 35 _l
443 35 475 44 505 62 _c
535 80 559 104 577 134 _c
595 164 604 195 604 228 _c
604 248 599 266 591 284 _c
583 302 571 316 555 326 _c
539 336 522 342 502 342 _c
307 342 _l
238 65 _l
235 55 234 48 234 43 _c
314 368 _m
466 368 _l
498 368 529 376 559 392 _c
589 408 613 431 632 459 _c
651 487 661 516 661 548 _c
661 576 652 600 634 619 _c
616 638 592 648 564 648 _c
427 648 _l
409 648 396 646 390 643 _c
384 639 379 630 375 614 _c
314 368 _l
_cl}_e}_d
/i{{344 0 27 -10 296 661 _sc
78 72 _m
78 84 80 97 86 111 _c
167 326 _l
175 350 180 370 180 386 _c
180 406 172 416 158 416 _c
132 416 110 402 93 375 _c
75 347 63 317 55 284 _c
53 280 51 278 47 278 _c
35 278 _l
29 278 27 281 27 287 _c
27 290 _l
37 330 54 365 76 396 _c
98 426 126 442 160 442 _c
184 442 204 434 220 418 _c
236 402 245 383 245 359 _c
245 346 242 333 237 320 _c
156 105 _l
146 83 142 63 142 45 _c
142 25 149 15 165 15 _c
}_e{191 15 212 29 230 57 _c
247 85 259 115 267 147 _c
268 151 271 153 275 153 _c
287 153 _l
289 153 291 152 293 150 _c
295 148 296 146 296 144 _c
296 143 295 142 295 141 _c
285 103 269 68 247 37 _c
224 5 196 -10 163 -10 _c
139 -10 119 -2 103 13 _c
86 29 78 48 78 72 _c
191 606 _m
191 620 196 632 208 644 _c
220 655 233 661 247 661 _c
258 661 267 657 275 650 _c
282 643 286 634 286 624 _c
286 609 280 596 268 585 _c
256 573 243 568 229 568 _c
218 568 209 571 202 579 _c
194 586 191 595 191 606 _c
_cl}_e}_d
/D{{827 0 39 0 803 683 _sc
49 0 _m
42 0 39 4 39 13 _c
39 15 40 18 41 22 _c
41 26 43 29 45 31 _c
47 33 49 35 52 35 _c
92 35 121 37 137 42 _c
145 44 152 53 156 69 _c
293 618 _l
294 624 295 629 295 632 _c
295 639 291 643 283 644 _c
270 646 246 648 211 648 _c
204 648 201 652 201 661 _c
201 663 202 666 203 670 _c
204 674 205 677 207 679 _c
209 681 211 683 214 683 _c
573 683 _l
619 683 660 671 695 649 _c
730 626 757 595 775 557 _c
793 519 803 477 803 431 _c
803 379 792 328 771 277 _c
750 226 720 179 682 137 _c
644 95 600 61 552 37 _c
503 12 453 0 402 0 _c
49 0 _l
236 43 _m
}_e{236 37 247 35 270 35 _c
386 35 _l
423 35 459 42 493 58 _c
527 73 558 94 586 121 _c
611 146 633 179 652 220 _c
671 260 686 303 697 347 _c
707 391 713 432 713 469 _c
713 496 709 520 701 542 _c
693 564 681 582 667 598 _c
653 614 635 626 613 635 _c
591 643 566 648 539 648 _c
429 648 _l
411 648 399 646 393 643 _c
387 640 381 630 377 614 _c
240 65 _l
237 57 236 49 236 43 _c
_cl}_e}_d
/S{{613 0 53 -21 646 705 _sc
61 -21 _m
59 -21 57 -19 55 -17 _c
53 -15 53 -13 53 -11 _c
111 221 _l
112 225 115 227 119 227 _c
131 227 _l
133 227 135 226 137 224 _c
138 222 139 219 139 217 _c
133 194 131 174 131 156 _c
131 107 147 71 180 48 _c
213 24 255 13 306 13 _c
328 13 349 18 370 29 _c
391 39 410 53 426 71 _c
442 88 454 107 464 129 _c
473 150 478 172 478 194 _c
478 217 471 238 459 256 _c
447 274 430 286 408 292 _c
286 324 _l
253 332 227 350 207 377 _c
187 403 178 433 178 467 _c
178 507 190 545 214 582 _c
238 619 269 649 307 671 _c
345 693 384 705 424 705 _c
454 705 482 699 508 688 _c
533 676 553 659 567 635 _c
624 702 _l
628 704 630 705 631 705 _c
}_e{637 705 _l
639 705 641 703 643 701 _c
645 699 646 697 646 695 _c
588 463 _l
586 458 584 456 580 456 _c
568 456 _l
562 456 559 459 559 467 _c
562 488 564 506 564 522 _c
564 552 558 579 548 602 _c
537 625 521 643 500 655 _c
478 667 452 673 421 673 _c
394 673 367 665 341 650 _c
315 634 293 614 277 589 _c
261 563 253 537 253 510 _c
253 488 259 469 272 453 _c
284 436 301 425 322 419 _c
444 387 _l
466 381 485 370 501 356 _c
517 341 530 323 539 303 _c
547 283 552 261 552 237 _c
552 205 545 173 532 143 _c
518 112 500 84 476 59 _c
452 33 424 14 394 0 _c
364 -14 333 -21 302 -21 _c
222 -21 165 2 131 48 _c
75 -18 _l
71 -20 68 -21 68 -21 _c
61 -21 _l
_cl}_e}_d
/d{{520 0 38 -10 519 694 _sc
174 -10 _m
132 -10 98 5 74 37 _c
50 68 38 105 38 149 _c
38 191 49 236 71 282 _c
93 328 122 366 160 396 _c
198 426 238 442 282 442 _c
302 442 319 436 335 425 _c
351 414 363 400 372 382 _c
428 605 _l
430 616 432 625 433 632 _c
433 642 411 648 368 648 _c
361 648 358 652 358 661 _c
358 663 358 666 360 670 _c
361 674 362 677 364 679 _c
366 681 368 683 372 683 _c
507 694 _l
515 694 519 689 519 681 _c
375 106 _l
370 94 368 78 368 58 _c
368 29 377 15 397 15 _c
417 15 433 28 444 55 _c
455 81 464 112 472 147 _c
}_e{473 151 476 153 480 153 _c
492 153 _l
494 153 496 151 498 149 _c
500 147 501 145 501 143 _c
489 96 476 59 462 31 _c
448 3 426 -10 395 -10 _c
372 -10 352 -3 335 9 _c
318 21 307 39 303 61 _c
260 13 217 -10 174 -10 _c
175 15 _m
199 15 222 24 245 42 _c
267 60 287 81 303 106 _c
303 106 304 108 304 110 _c
359 330 _l
355 353 346 373 333 390 _c
319 407 302 416 280 416 _c
257 416 236 406 217 388 _c
197 370 181 348 168 323 _c
154 296 142 259 130 213 _c
118 167 113 131 113 105 _c
113 81 118 60 128 42 _c
138 24 153 15 175 15 _c
_cl}_e}_d
/f{{489 0 53 -204 552 705 _sc
97 -164 _m
109 -173 124 -178 142 -178 _c
166 -178 185 -151 200 -99 _c
206 -73 223 9 251 151 _c
297 396 _l
211 396 _l
204 396 201 400 201 409 _c
203 423 208 431 214 431 _c
303 431 _l
315 496 _l
319 516 322 533 326 548 _c
329 562 332 576 336 588 _c
340 600 345 614 353 630 _c
364 652 379 670 399 684 _c
418 698 439 705 462 705 _c
476 705 490 702 504 697 _c
518 691 529 683 538 673 _c
547 662 552 649 552 635 _c
552 617 546 602 535 590 _c
523 578 510 572 494 572 _c
483 572 474 575 466 582 _c
458 588 455 597 455 608 _c
455 622 460 635 470 646 _c
480 657 492 663 507 665 _c
}_e{494 674 479 679 461 679 _c
451 679 441 674 432 665 _c
423 655 417 645 415 635 _c
411 617 401 571 387 497 _c
375 431 _l
478 431 _l
484 431 488 426 488 418 _c
487 416 486 413 485 409 _c
484 405 483 401 481 399 _c
479 397 477 396 475 396 _c
368 396 _l
322 152 _l
316 116 309 80 301 44 _c
293 8 283 -29 269 -68 _c
255 -106 238 -139 216 -165 _c
194 -191 169 -204 140 -204 _c
117 -204 97 -197 79 -185 _c
61 -172 53 -155 53 -134 _c
53 -116 58 -101 69 -89 _c
80 -77 94 -71 111 -71 _c
121 -71 130 -74 138 -81 _c
146 -87 150 -96 150 -107 _c
150 -121 144 -134 134 -146 _c
123 -158 111 -164 97 -164 _c
_cl}_e}_d
/s{{468 0 52 -10 419 442 _sc
87 61 _m
105 30 141 15 195 15 _c
218 15 240 19 261 27 _c
282 35 300 47 314 63 _c
328 79 335 98 335 121 _c
335 138 328 152 316 163 _c
304 174 289 182 271 186 _c
217 197 _l
192 203 172 214 156 231 _c
140 248 132 269 132 293 _c
132 322 140 348 156 371 _c
172 394 193 412 219 424 _c
245 436 273 442 302 442 _c
332 442 359 434 383 420 _c
407 405 419 384 419 356 _c
419 340 414 327 406 315 _c
397 303 385 298 370 298 _c
361 298 353 300 347 306 _c
341 312 338 319 338 328 _c
338 336 340 343 344 351 _c
348 358 354 364 362 368 _c
369 372 377 375 385 375 _c
379 389 368 399 352 406 _c
336 412 318 416 300 416 _c
282 416 265 412 249 406 _c
232 399 218 389 208 376 _c
198 362 193 347 193 329 _c
193 317 197 306 205 297 _c
213 288 224 282 237 278 _c
}_e{295 266 _l
313 262 330 255 346 245 _c
361 235 373 222 382 207 _c
391 192 396 175 396 156 _c
396 131 389 106 375 82 _c
361 58 344 39 324 25 _c
288 1 245 -10 194 -10 _c
158 -10 126 -2 96 14 _c
66 30 52 54 52 86 _c
52 104 57 119 67 133 _c
77 147 92 154 111 154 _c
121 154 130 150 138 144 _c
145 137 149 128 149 118 _c
149 102 143 89 132 78 _c
120 66 107 61 92 61 _c
87 61 _l
_cl}_e}_d
/l{{298 0 44 -10 262 694 _sc
44 81 _m
44 83 44 86 44 90 _c
44 94 45 97 46 101 _c
46 105 47 108 47 110 _c
171 605 _l
173 616 175 625 176 632 _c
176 642 154 648 111 648 _c
104 648 101 652 101 661 _c
101 663 102 666 103 670 _c
104 674 105 677 107 679 _c
109 681 111 683 115 683 _c
250 694 _l
258 694 262 689 262 681 _c
118 106 _l
113 95 111 79 111 58 _c
111 29 120 15 140 15 _c
160 15 176 27 186 53 _c
196 79 206 110 214 147 _c
215 151 218 153 222 153 _c
234 153 _l
236 153 238 151 240 149 _c
242 147 243 145 243 143 _c
}_e{235 111 227 85 221 67 _c
215 48 205 30 191 14 _c
177 -2 159 -10 138 -10 _c
111 -10 89 -1 71 15 _c
53 32 44 54 44 81 _c
_cl}_e}_d
/T{{584 0 24 0 706 683 _sc
46 13 _m
46 15 46 18 48 22 _c
49 26 50 29 52 31 _c
54 33 56 35 60 35 _c
117 35 155 36 174 40 _c
192 44 202 54 206 69 _c
343 618 _l
345 626 347 633 347 640 _c
347 645 335 648 312 648 _c
254 648 _l
209 648 174 641 150 627 _c
126 613 108 595 97 573 _c
85 551 71 514 53 463 _c
51 457 47 454 43 454 _c
34 454 _l
27 454 24 458 24 467 _c
95 674 _l
96 680 99 683 105 683 _c
696 683 _l
702 683 706 678 706 670 _c
673 463 _l
}_e{673 461 671 459 669 457 _c
667 455 665 454 663 454 _c
654 454 _l
647 454 644 458 644 467 _c
651 514 655 547 655 567 _c
655 590 650 608 640 620 _c
630 632 617 639 602 643 _c
586 646 566 648 541 648 _c
482 648 _l
464 648 452 646 446 643 _c
440 639 434 630 430 614 _c
293 65 _l
292 63 292 62 292 61 _c
292 59 291 58 291 56 _c
291 47 296 42 306 40 _c
323 36 360 35 417 35 _c
423 35 427 30 427 22 _c
424 12 422 6 421 4 _c
419 1 416 0 410 0 _c
56 0 _l
49 0 46 4 46 13 _c
_cl}_e}_d
/a{{528 0 38 -10 501 442 _sc
174 -10 _m
132 -10 98 5 74 37 _c
50 68 38 105 38 149 _c
38 191 49 236 71 282 _c
93 328 122 366 160 396 _c
198 426 238 442 282 442 _c
302 442 319 436 335 426 _c
351 415 363 400 372 382 _c
379 408 394 422 416 422 _c
424 422 431 419 437 414 _c
443 409 446 402 446 394 _c
446 392 445 390 445 389 _c
445 388 445 387 445 386 _c
375 107 _l
370 87 368 70 368 58 _c
368 29 377 15 397 15 _c
417 15 433 28 444 55 _c
455 81 464 112 472 147 _c
473 151 476 153 480 153 _c
492 153 _l
494 153 496 151 498 149 _c
500 147 501 145 501 143 _c
}_e{489 96 476 59 462 31 _c
448 3 426 -10 395 -10 _c
372 -10 352 -3 335 9 _c
318 21 307 39 303 61 _c
260 13 217 -10 174 -10 _c
175 15 _m
199 15 222 24 245 42 _c
267 60 287 81 303 106 _c
303 106 304 107 304 109 _c
358 326 _l
359 329 _l
355 353 346 373 333 390 _c
319 407 302 416 280 416 _c
257 416 236 406 217 388 _c
197 370 181 348 168 323 _c
154 296 142 259 130 213 _c
118 167 113 131 113 105 _c
113 81 118 60 128 42 _c
138 24 153 15 175 15 _c
_cl}_e}_d
/n{{600 0 27 -10 574 442 _sc
77 17 _m
77 21 77 24 78 26 _c
153 324 _l
157 342 160 359 160 373 _c
160 401 150 416 131 416 _c
110 416 94 403 84 378 _c
74 353 64 322 55 284 _c
55 282 54 280 52 279 _c
50 278 48 278 47 278 _c
35 278 _l
33 278 31 279 29 281 _c
27 283 27 286 27 288 _c
34 317 41 342 48 362 _c
54 382 65 400 79 417 _c
93 433 110 442 132 442 _c
156 442 178 434 198 418 _c
217 402 227 382 227 358 _c
247 384 270 404 297 419 _c
323 434 352 442 382 442 _c
405 442 425 437 443 429 _c
460 421 473 408 483 392 _c
493 376 498 356 498 334 _c
498 306 491 273 479 235 _c
467 196 452 153 434 105 _c
}_e{424 83 420 63 420 45 _c
420 25 427 15 443 15 _c
469 15 490 29 508 57 _c
525 85 537 115 545 147 _c
546 151 549 153 553 153 _c
565 153 _l
567 153 569 152 571 150 _c
573 148 574 146 574 144 _c
574 143 573 142 573 141 _c
564 103 548 68 526 37 _c
503 5 475 -10 441 -10 _c
417 -10 397 -2 381 13 _c
364 29 356 48 356 72 _c
356 84 358 97 364 111 _c
372 133 381 159 392 189 _c
403 219 412 247 419 275 _c
426 303 430 327 430 349 _c
430 367 426 383 418 396 _c
410 409 398 416 380 416 _c
355 416 332 410 312 400 _c
292 389 274 375 259 357 _c
243 339 229 318 217 294 _c
149 22 _l
147 12 142 5 134 -1 _c
126 -7 117 -10 107 -10 _c
}_e{99 -10 92 -7 86 -3 _c
80 1 77 8 77 17 _c
_cl}_e}_d
/p{{503 0 -33 -193 491 442 _sc
-24 -193 _m
-30 -193 -33 -188 -33 -180 _c
-31 -165 -26 -158 -20 -158 _c
0 -158 14 -156 22 -152 _c
30 -148 37 -139 42 -124 _c
155 325 _l
159 337 162 353 162 373 _c
162 401 152 416 133 416 _c
112 416 96 403 86 378 _c
76 353 66 322 57 284 _c
57 280 54 278 49 278 _c
37 278 _l
35 278 34 279 32 281 _c
30 283 29 286 29 288 _c
36 317 43 342 50 362 _c
56 382 67 400 81 417 _c
95 433 112 442 134 442 _c
156 442 176 435 194 422 _c
211 409 222 392 227 370 _c
245 391 265 408 287 422 _c
309 435 332 442 356 442 _c
}_e{384 442 408 434 429 419 _c
449 404 465 384 475 360 _c
485 336 491 310 491 282 _c
491 239 480 195 458 149 _c
436 103 406 65 369 35 _c
331 5 291 -10 248 -10 _c
228 -10 211 -4 195 6 _c
179 16 166 31 158 49 _c
113 -128 _l
111 -138 110 -143 110 -145 _c
110 -153 132 -158 176 -158 _c
182 -158 186 -162 186 -171 _c
184 -179 182 -185 180 -188 _c
178 -191 175 -193 169 -193 _c
-24 -193 _l
249 15 _m
272 15 293 24 313 43 _c
333 62 349 84 362 108 _c
370 126 379 147 387 173 _c
395 199 402 226 408 256 _c
414 285 417 308 417 326 _c
417 341 415 355 411 369 _c
407 382 400 393 391 402 _c
381 411 369 416 354 416 _c
329 416 306 407 284 390 _c
262 372 243 351 226 325 _c
226 322 _l
171 101 _l
}_e{175 77 184 56 197 40 _c
210 23 227 15 249 15 _c
_cl}_e}_d
/r{{451 0 27 -10 434 442 _sc
77 17 _m
77 21 77 24 78 26 _c
153 324 _l
157 342 160 359 160 373 _c
160 401 150 416 131 416 _c
110 416 94 403 84 378 _c
74 353 64 322 55 284 _c
55 282 54 280 52 279 _c
50 278 48 278 47 278 _c
35 278 _l
33 278 31 279 29 281 _c
27 283 27 286 27 288 _c
34 317 41 342 48 362 _c
54 382 65 400 79 417 _c
93 433 110 442 132 442 _c
155 442 175 435 193 422 _c
210 408 221 391 225 369 _c
241 391 260 408 282 422 _c
304 435 328 442 354 442 _c
375 442 394 435 410 423 _c
426 411 434 394 434 373 _c
434 356 428 341 418 329 _c
407 316 393 310 376 310 _c
}_e{365 310 356 313 349 320 _c
341 326 338 335 338 346 _c
338 360 343 373 354 385 _c
364 397 377 403 391 403 _c
380 411 367 416 352 416 _c
323 416 298 405 277 385 _c
256 365 237 339 220 308 _c
149 22 _l
147 12 142 5 134 -1 _c
126 -7 117 -10 107 -10 _c
99 -10 92 -7 86 -3 _c
80 1 77 8 77 17 _c
_cl}_e}_d
end readonly def

/BuildGlyph
 {exch begin
 CharStrings exch
 2 copy known not{pop /.notdef}if
 true 3 1 roll get exec
 end}_d

/BuildChar {
 1 index /Encoding get exch get
 1 index /BuildGlyph get exec
}_d

FontName currentdict end definefont pop
%!PS-Adobe-3.0 Resource-Font
%%Title: cmr10
%%Copyright: Copyright (C) 1994, Basil K. Malyshev. All Rights Reserved.012BaKoMa Fonts Collection, Level-B.
%%Creator: Converted from TrueType by PPR
25 dict begin
/_d{bind def}bind def
/_m{moveto}_d
/_l{lineto}_d
/_cl{closepath eofill}_d
/_c{curveto}_d
/_sc{7 -1 roll{setcachedevice}{pop pop pop pop pop pop}ifelse}_d
/_e{exec}_d
/FontName /Cmr10 def
/PaintType 0 def
/FontMatrix[.001 0 0 .001 0 0]def
/FontBBox[-43 -249 1009 750]def
/FontType 3 def
/Encoding StandardEncoding def
/FontInfo 10 dict dup begin
/FamilyName (cmr10) def
/FullName (cmr10) def
/Notice (Copyright (C) 1994, Basil K. Malyshev. All Rights Reserved.012BaKoMa Fonts Collection, Level-B. ) def
/Weight (Regular) def
/Version (1.1/12-Nov-94) def
/ItalicAngle 0.0 def
/isFixedPitch false def
/UnderlinePosition -133 def
/UnderlineThickness 20 def
end readonly def
/CharStrings 5 dict dup begin
/four{{500 0 28 0 471 666 _sc
28 165 _m
28 200 _l
337 661 _l
339 664 342 666 347 666 _c
362 666 _l
369 666 373 662 373 655 _c
373 200 _l
471 200 _l
471 165 _l
373 165 _l
373 67 _l
373 53 382 44 402 40 _c
422 36 444 35 470 35 _c
470 0 _l
195 0 _l
195 35 _l
220 35 242 36 262 40 _c
282 44 292 53 292 67 _c
292 165 _l
28 165 _l
61 200 _m
298 200 _l
298 554 _l
61 200 _l
_cl}_e}_d
/parenright{{388 0 56 -249 291 750 _sc
65 -249 _m
59 -249 56 -246 56 -240 _c
56 -237 56 -235 58 -234 _c
172 -122 229 38 229 250 _c
229 462 172 623 60 733 _c
57 734 56 737 56 741 _c
56 743 57 745 59 747 _c
61 749 63 750 65 750 _c
74 750 _l
76 750 77 749 79 748 _c
127 710 167 664 199 610 _c
231 556 254 498 269 437 _c
283 376 291 314 291 250 _c
291 202 287 156 279 110 _c
271 64 258 20 241 -24 _c
223 -68 201 -108 175 -146 _c
148 -184 116 -217 79 -247 _c
77 -248 76 -249 74 -249 _c
65 -249 _l
_cl}_e}_d
/eight{{500 0 42 -21 457 666 _sc
42 152 _m
42 192 55 227 81 258 _c
107 288 141 314 183 335 _c
146 359 _l
123 373 104 393 90 418 _c
76 443 69 469 69 497 _c
69 529 77 557 94 583 _c
110 609 133 629 161 644 _c
189 658 218 666 250 666 _c
279 666 307 660 335 648 _c
363 636 385 618 403 596 _c
421 574 430 547 430 516 _c
430 493 424 472 414 453 _c
403 434 388 417 370 402 _c
352 386 332 373 312 363 _c
369 326 _l
395 308 417 286 433 258 _c
449 230 457 200 457 170 _c
457 134 447 101 428 71 _c
408 41 383 19 351 3 _c
319 -13 285 -21 250 -21 _c
215 -21 182 -14 150 0 _c
118 13 92 33 72 60 _c
52 86 42 117 42 152 _c
96 152 _m
96 125 103 101 118 79 _c
132 57 151 40 175 28 _c
199 16 224 10 250 10 _c
288 10 323 21 355 44 _c
387 66 403 96 403 134 _c
403 146 400 159 395 171 _c
390 183 383 195 374 205 _c
365 215 355 224 344 231 _c
210 318 _l
}_e{189 306 170 292 152 275 _c
134 258 121 239 111 218 _c
101 197 96 175 96 152 _c
165 457 _m
286 379 _l
314 395 337 414 355 438 _c
373 461 382 487 382 516 _c
382 538 375 559 363 578 _c
350 596 334 611 314 621 _c
294 631 272 637 249 637 _c
229 637 208 633 188 625 _c
167 617 150 606 137 590 _c
123 574 117 556 117 536 _c
117 504 133 478 165 457 _c
_cl}_e}_d
/grave{500 0 107 509 294 698 _sc
121 632 _m
111 640 107 650 107 660 _c
107 670 110 679 118 687 _c
125 694 134 698 145 698 _c
156 698 166 693 174 683 _c
294 529 _l
273 509 _l
121 632 _l
_cl}_d
/parenleft{{388 0 97 -249 332 750 _sc
310 -247 _m
272 -217 240 -184 214 -146 _c
187 -108 165 -67 148 -25 _c
131 17 118 62 110 109 _c
101 155 97 202 97 250 _c
97 298 101 345 110 392 _c
118 438 131 483 149 527 _c
166 570 188 611 215 649 _c
242 687 274 720 310 748 _c
310 749 311 750 315 750 _c
324 750 _l
326 750 327 749 329 747 _c
331 745 332 743 332 741 _c
332 738 331 736 330 735 _c
297 703 270 668 248 632 _c
226 596 209 557 196 516 _c
183 474 174 432 168 388 _c
162 344 159 298 159 250 _c
159 38 215 -122 329 -232 _c
331 -234 332 -236 332 -240 _c
332 -242 331 -244 329 -246 _c
327 -248 326 -249 324 -249 _c
315 -249 _l
311 -249 310 -248 310 -247 _c
_cl}_e}_d
end readonly def

/BuildGlyph
 {exch begin
 CharStrings exch
 2 copy known not{pop /.notdef}if
 true 3 1 roll get exec
 end}_d

/BuildChar {
 1 index /Encoding get exch get
 1 index /BuildGlyph get exec
}_d

FontName currentdict end definefont pop
%!PS-Adobe-3.0 Resource-Font
%%Title: cmsy10
%%Copyright: Copyright (C) 1994, Basil K. Malyshev. All Rights Reserved.012BaKoMa Fonts Collection, Level-B.
%%Creator: Converted from TrueType by PPR
25 dict begin
/_d{bind def}bind def
/_m{moveto}_d
/_l{lineto}_d
/_cl{closepath eofill}_d
/_c{curveto}_d
/_sc{7 -1 roll{setcachedevice}{pop pop pop pop pop pop}ifelse}_d
/_e{exec}_d
/FontName /Cmsy10 def
/PaintType 0 def
/FontMatrix[.001 0 0 .001 0 0]def
/FontBBox[-28 -959 1123 779]def
/FontType 3 def
/Encoding StandardEncoding def
/FontInfo 10 dict dup begin
/FamilyName (cmsy10) def
/FullName (cmsy10) def
/Notice (Copyright (C) 1994, Basil K. Malyshev. All Rights Reserved.012BaKoMa Fonts Collection, Level-B. ) def
/Weight (Regular) def
/Version (1.1/12-Nov-94) def
/ItalicAngle 0.0 def
/isFixedPitch false def
/UnderlinePosition -133 def
/UnderlineThickness 20 def
end readonly def
/CharStrings 2 dict dup begin
/minus{777 0 83 230 694 270 _sc
102 230 _m
96 230 92 232 88 236 _c
84 240 83 245 83 250 _c
83 254 84 259 88 263 _c
92 267 96 270 102 270 _c
676 270 _l
681 270 685 267 689 263 _c
692 259 694 254 694 250 _c
694 245 692 240 689 236 _c
685 232 681 230 676 230 _c
102 230 _l
_cl}_d
/bar{277 0 119 -249 159 750 _sc
119 -231 _m
119 732 _l
119 737 121 741 125 745 _c
129 748 133 750 139 750 _c
143 750 148 748 152 745 _c
156 741 159 737 159 732 _c
159 -231 _l
159 -236 156 -240 152 -244 _c
148 -247 143 -249 139 -249 _c
133 -249 129 -247 125 -244 _c
121 -240 119 -236 119 -231 _c
_cl}_d
end readonly def

/BuildGlyph
 {exch begin
 CharStrings exch
 2 copy known not{pop /.notdef}if
 true 3 1 roll get exec
 end}_d

/BuildChar {
 1 index /Encoding get exch get
 1 index /BuildGlyph get exec
}_d

FontName currentdict end definefont pop
%!PS-Adobe-3.0 Resource-Font
%%Title: DejaVu Sans
%%Copyright: Copyright (c) 2003 by Bitstream, Inc. All Rights Reserved. Copyright (c) 2006 by Tavmjong Bah. All Rights Reserved. DejaVu changes are in public domain 
%%Creator: Converted from TrueType by PPR
25 dict begin
/_d{bind def}bind def
/_m{moveto}_d
/_l{lineto}_d
/_cl{closepath eofill}_d
/_c{curveto}_d
/_sc{7 -1 roll{setcachedevice}{pop pop pop pop pop pop}ifelse}_d
/_e{exec}_d
/FontName /DejaVuSans def
/PaintType 0 def
/FontMatrix[.001 0 0 .001 0 0]def
/FontBBox[-1020 -414 1681 1167]def
/FontType 3 def
/Encoding StandardEncoding def
/FontInfo 10 dict dup begin
/FamilyName (DejaVu Sans) def
/FullName (DejaVu Sans) def
/Notice (Copyright (c) 2003 by Bitstream, Inc. All Rights Reserved. Copyright (c) 2006 by Tavmjong Bah. All Rights Reserved. DejaVu changes are in public domain ) def
/Weight (Book) def
/Version (Version 2.31) def
/ItalicAngle 0.0 def
/isFixedPitch false def
/UnderlinePosition -130 def
/UnderlineThickness 90 def
end readonly def
/CharStrings 10 dict dup begin
/zero{636 0 66 -13 570 742 _sc
318 664 _m
267 664 229 639 203 589 _c
177 539 165 464 165 364 _c
165 264 177 189 203 139 _c
229 89 267 64 318 64 _c
369 64 407 89 433 139 _c
458 189 471 264 471 364 _c
471 464 458 539 433 589 _c
407 639 369 664 318 664 _c
318 742 _m
399 742 461 709 505 645 _c
548 580 570 486 570 364 _c
570 241 548 147 505 83 _c
461 19 399 -13 318 -13 _c
236 -13 173 19 130 83 _c
87 147 66 241 66 364 _c
66 486 87 580 130 645 _c
173 709 236 742 318 742 _c
_cl}_d
/one{636 0 110 0 544 729 _sc
124 83 _m
285 83 _l
285 639 _l
110 604 _l
110 694 _l
284 729 _l
383 729 _l
383 83 _l
544 83 _l
544 0 _l
124 0 _l
124 83 _l
_cl}_d
/two{{636 0 73 0 536 742 _sc
192 83 _m
536 83 _l
536 0 _l
73 0 _l
73 83 _l
110 121 161 173 226 239 _c
290 304 331 346 348 365 _c
380 400 402 430 414 455 _c
426 479 433 504 433 528 _c
433 566 419 598 392 622 _c
365 646 330 659 286 659 _c
255 659 222 653 188 643 _c
154 632 117 616 78 594 _c
78 694 _l
118 710 155 722 189 730 _c
223 738 255 742 284 742 _c
359 742 419 723 464 685 _c
509 647 532 597 532 534 _c
532 504 526 475 515 449 _c
504 422 484 390 454 354 _c
446 344 420 317 376 272 _c
332 227 271 164 192 83 _c
_cl}_e}_d
/four{636 0 49 0 580 729 _sc
378 643 _m
129 254 _l
378 254 _l
378 643 _l
352 729 _m
476 729 _l
476 254 _l
580 254 _l
580 172 _l
476 172 _l
476 0 _l
378 0 _l
378 172 _l
49 172 _l
49 267 _l
352 729 _l
_cl}_d
/six{{636 0 70 -13 573 742 _sc
330 404 _m
286 404 251 388 225 358 _c
199 328 186 286 186 234 _c
186 181 199 139 225 109 _c
251 79 286 64 330 64 _c
374 64 409 79 435 109 _c
461 139 474 181 474 234 _c
474 286 461 328 435 358 _c
409 388 374 404 330 404 _c
526 713 _m
526 623 _l
501 635 476 644 451 650 _c
425 656 400 659 376 659 _c
310 659 260 637 226 593 _c
192 549 172 482 168 394 _c
187 422 211 444 240 459 _c
269 474 301 482 336 482 _c
409 482 467 459 509 415 _c
551 371 573 310 573 234 _c
573 159 550 99 506 54 _c
462 9 403 -13 330 -13 _c
246 -13 181 19 137 83 _c
92 147 70 241 70 364 _c
70 479 97 571 152 639 _c
206 707 280 742 372 742 _c
}_e{396 742 421 739 447 735 _c
472 730 498 723 526 713 _c
_cl}_e}_d
/eight{{636 0 68 -13 568 742 _sc
318 346 _m
271 346 234 333 207 308 _c
180 283 167 249 167 205 _c
167 161 180 126 207 101 _c
234 76 271 64 318 64 _c
364 64 401 76 428 102 _c
455 127 469 161 469 205 _c
469 249 455 283 429 308 _c
402 333 365 346 318 346 _c
219 388 _m
177 398 144 418 120 447 _c
96 476 85 511 85 553 _c
85 611 105 657 147 691 _c
188 725 245 742 318 742 _c
390 742 447 725 489 691 _c
530 657 551 611 551 553 _c
551 511 539 476 515 447 _c
491 418 459 398 417 388 _c
464 377 501 355 528 323 _c
554 291 568 251 568 205 _c
568 134 546 80 503 43 _c
459 5 398 -13 318 -13 _c
237 -13 175 5 132 43 _c
89 80 68 134 68 205 _c
68 251 81 291 108 323 _c
134 355 171 377 219 388 _c
}_e{183 544 _m
183 506 194 476 218 455 _c
242 434 275 424 318 424 _c
360 424 393 434 417 455 _c
441 476 453 506 453 544 _c
453 582 441 611 417 632 _c
393 653 360 664 318 664 _c
275 664 242 653 218 632 _c
194 611 183 582 183 544 _c
_cl}_e}_d
/C{{698 0 56 -13 644 742 _sc
644 673 _m
644 569 _l
610 599 575 622 537 638 _c
499 653 460 661 418 661 _c
334 661 270 635 226 584 _c
182 533 160 460 160 364 _c
160 268 182 194 226 143 _c
270 92 334 67 418 67 _c
460 67 499 74 537 90 _c
575 105 610 128 644 159 _c
644 56 _l
609 32 572 15 534 4 _c
496 -7 455 -13 412 -13 _c
302 -13 215 20 151 87 _c
87 154 56 246 56 364 _c
56 481 87 573 151 641 _c
215 708 302 742 412 742 _c
456 742 497 736 535 725 _c
573 713 610 696 644 673 _c
_cl}_e}_d
/E{632 0 98 0 568 729 _sc
98 729 _m
559 729 _l
559 646 _l
197 646 _l
197 430 _l
544 430 _l
544 347 _l
197 347 _l
197 83 _l
568 83 _l
568 0 _l
98 0 _l
98 729 _l
_cl}_d
/R{{695 0 98 0 666 729 _sc
444 342 _m
465 334 486 319 506 296 _c
526 272 546 240 566 199 _c
666 0 _l
560 0 _l
467 187 _l
443 235 419 268 397 284 _c
374 300 343 308 304 308 _c
197 308 _l
197 0 _l
98 0 _l
98 729 _l
321 729 _l
404 729 466 711 507 677 _c
548 642 569 589 569 519 _c
569 473 558 434 537 404 _c
515 374 484 353 444 342 _c
197 648 _m
197 389 _l
321 389 _l
368 389 404 400 428 422 _c
452 444 465 476 465 519 _c
465 561 452 593 428 615 _c
404 637 368 648 321 648 _c
197 648 _l
_cl}_e}_d
/minus{838 0 106 272 732 355 _sc
106 355 _m
732 355 _l
732 272 _l
106 272 _l
106 355 _l
_cl}_d
end readonly def

/BuildGlyph
 {exch begin
 CharStrings exch
 2 copy known not{pop /.notdef}if
 true 3 1 roll get exec
 end}_d

/BuildChar {
 1 index /Encoding get exch get
 1 index /BuildGlyph get exec
}_d

FontName currentdict end definefont pop
end
%%EndProlog
mpldict begin
18 180 translate
576 432 0 0 clipbox
1.000 setlinewidth
1 setlinejoin
2 setlinecap
[] 0 setdash
1.000 setgray
gsave
0 0 m
576 0 l
576 432 l
0 432 l
0 0 l
gsave
fill
grestore
stroke
grestore
gsave
72 43.2 m
518.4 43.2 l
518.4 388.8 l
72 388.8 l
72 43.2 l
fill
grestore
0.000 setgray
gsave
446.4 345.6 72 43.2 clipbox
72 380.328 m
73.4077 380.101 l
75.5192 378.9 l
77.6307 376.612 l
79.7422 373.116 l
81.8538 368.19 l
83.9653 361.41 l
86.0768 351.859 l
87.4845 342.833 l
88.8922 329.127 l
89.596 317.787 l
90.2998 293.647 l
91.0037 297.599 l
91.7075 314.799 l
93.1152 326.295 l
94.5229 330.089 l
95.2267 330.624 l
95.9306 330.493 l
96.6344 329.772 l
98.0421 326.626 l
99.4497 320.893 l
100.857 311.118 l
101.561 303.212 l
102.265 289.995 l
102.969 229.841 l
103.673 286.578 l
104.377 298.863 l
105.784 309.222 l
107.192 313.229 l
107.896 313.959 l
108.6 314.034 l
109.304 313.51 l
110.711 310.679 l
112.119 305.035 l
113.527 294.699 l
114.23 285.65 l
115.638 254.791 l
116.342 279.816 l
117.75 294.827 l
119.157 300.674 l
120.565 302.748 l
121.269 302.785 l
121.973 302.227 l
123.38 299.276 l
124.788 293.294 l
126.196 281.813 l
126.899 270.844 l
127.603 241.97 l
129.011 274.837 l
130.419 287.278 l
131.826 292.468 l
132.53 293.694 l
133.234 294.232 l
133.938 294.152 l
134.642 293.477 l
136.049 290.232 l
137.457 283.697 l
138.161 278.422 l
138.865 270.561 l
139.569 256.393 l
140.272 215.462 l
140.976 259.448 l
142.384 277.244 l
143.792 284.131 l
145.199 286.95 l
145.903 287.321 l
146.607 287.086 l
147.311 286.253 l
148.719 282.616 l
150.126 275.361 l
150.83 269.352 l
151.534 259.91 l
152.238 239.529 l
152.942 238.099 l
153.645 258.562 l
155.053 272.916 l
156.461 278.921 l
157.868 281.278 l
158.572 281.466 l
159.276 281.055 l
159.98 280.038 l
161.388 275.932 l
162.795 267.789 l
163.499 260.814 l
164.203 248.978 l
164.907 208.544 l
165.611 243.464 l
167.018 264.58 l
168.426 272.36 l
169.834 275.74 l
170.538 276.352 l
171.241 276.348 l
171.945 275.747 l
172.649 274.525 l
174.057 269.881 l
175.464 260.653 l
176.168 252.37 l
177.576 215.656 l
178.28 245.452 l
179.687 261.977 l
181.095 268.722 l
182.503 271.568 l
183.207 271.97 l
183.911 271.767 l
184.614 270.963 l
186.022 267.343 l
187.43 259.951 l
188.134 253.693 l
188.837 243.544 l
189.541 218.843 l
190.245 228.767 l
190.949 246.11 l
192.357 259.609 l
193.764 265.464 l
195.172 267.802 l
195.876 267.994 l
196.58 267.587 l
197.283 266.568 l
198.691 262.41 l
200.099 254.019 l
200.803 246.661 l
201.507 233.609 l
202.21 154.615 l
202.914 233.748 l
204.322 252.965 l
205.73 260.456 l
207.137 263.754 l
207.841 264.347 l
208.545 264.329 l
209.249 263.711 l
209.953 262.465 l
211.36 257.713 l
212.768 248.117 l
213.472 239.257 l
214.176 220.946 l
214.879 212.943 l
215.583 236.182 l
216.991 251.519 l
218.399 258.011 l
219.806 260.761 l
220.51 261.133 l
221.214 260.902 l
221.918 260.066 l
223.326 256.342 l
224.733 248.681 l
225.437 242.083 l
226.141 231.028 l
226.845 198.903 l
228.252 237.421 l
229.66 250.09 l
231.068 255.72 l
232.475 257.953 l
233.179 258.106 l
233.883 257.66 l
234.587 256.597 l
235.995 252.298 l
237.402 243.55 l
238.106 235.712 l
238.81 221.088 l
239.514 190.131 l
240.218 226.831 l
241.625 244.431 l
243.033 251.593 l
244.441 254.748 l
245.145 255.291 l
245.848 255.226 l
246.552 254.56 l
247.256 253.258 l
248.664 248.328 l
250.071 238.267 l
250.775 228.701 l
251.479 206.96 l
252.183 210.123 l
252.887 229.338 l
254.294 243.606 l
255.702 249.815 l
257.11 252.424 l
257.814 252.742 l
258.518 252.459 l
259.221 251.566 l
260.629 247.686 l
262.037 239.688 l
262.741 232.684 l
263.444 220.51 l
264.148 170.186 l
264.852 217.5 l
266.26 238.032 l
267.667 245.913 l
269.075 249.475 l
269.779 250.186 l
270.483 250.281 l
271.187 249.777 l
271.89 248.649 l
273.298 244.166 l
274.706 234.994 l
275.41 226.589 l
276.817 194.703 l
277.521 221.507 l
278.929 237.72 l
280.337 244.546 l
281.744 247.533 l
282.448 248.012 l
283.152 247.887 l
283.856 247.157 l
284.56 245.782 l
285.967 240.636 l
287.375 230.035 l
288.079 219.626 l
288.783 192.571 l
290.894 232.109 l
292.302 240.778 l
293.71 244.758 l
294.413 245.635 l
295.117 245.887 l
295.821 245.54 l
296.525 244.578 l
297.933 240.512 l
299.34 232.126 l
300.044 224.654 l
300.748 211.089 l
301.452 163.523 l
302.156 213.594 l
303.563 232.265 l
304.971 239.757 l
306.379 243.13 l
307.082 243.768 l
307.786 243.797 l
308.49 243.225 l
309.194 242.021 l
310.602 237.326 l
312.009 227.674 l
312.713 218.606 l
313.417 199.136 l
314.121 195.716 l
314.825 217.201 l
316.232 232.211 l
317.64 238.706 l
319.048 241.514 l
319.752 241.922 l
320.455 241.727 l
321.159 240.925 l
322.567 237.251 l
323.975 229.569 l
324.678 222.868 l
325.382 211.446 l
326.086 174.484 l
326.79 205.179 l
328.198 227.116 l
329.605 235.337 l
331.013 239.107 l
331.717 239.906 l
332.421 240.086 l
333.125 239.667 l
333.828 238.628 l
335.236 234.355 l
336.644 225.539 l
337.348 217.531 l
338.051 202.199 l
338.755 178.474 l
339.459 210.329 l
340.867 227.44 l
342.274 234.557 l
343.682 237.734 l
344.386 238.297 l
345.09 238.253 l
345.794 237.606 l
346.497 236.319 l
347.905 231.391 l
349.313 221.206 l
350.017 211.363 l
350.721 187.844 l
351.424 195.566 l
352.128 213.596 l
353.536 227.55 l
354.944 233.723 l
356.351 236.349 l
357.055 236.681 l
357.759 236.412 l
358.463 235.531 l
359.87 231.656 l
361.278 223.584 l
361.982 216.439 l
362.686 203.782 l
363.39 124.356 l
364.093 203.055 l
365.501 222.874 l
366.909 230.67 l
368.317 234.229 l
369.02 234.947 l
369.724 235.052 l
370.428 234.556 l
371.132 233.434 l
372.54 228.938 l
373.947 219.649 l
374.651 211.025 l
376.059 183.136 l
376.763 207.523 l
378.17 223.302 l
379.578 230.059 l
380.986 233.041 l
381.689 233.524 l
382.393 233.403 l
383.097 232.677 l
383.801 231.302 l
385.209 226.124 l
386.616 215.349 l
387.32 204.588 l
388.024 174.458 l
389.432 210.501 l
390.839 223.519 l
392.247 229.382 l
393.655 231.822 l
394.359 232.076 l
395.062 231.729 l
395.766 230.766 l
397.174 226.676 l
398.582 218.18 l
399.285 210.531 l
399.989 196.34 l
400.693 161.055 l
401.397 201.122 l
402.805 219.193 l
404.212 226.588 l
405.62 229.937 l
406.324 230.572 l
407.028 230.598 l
407.732 230.023 l
408.435 228.814 l
409.843 224.08 l
411.251 214.274 l
411.955 204.936 l
412.658 184.068 l
413.362 185.092 l
414.066 205.063 l
415.474 219.685 l
416.881 226.1 l
418.289 228.885 l
418.993 229.287 l
419.697 229.087 l
420.401 228.279 l
421.808 224.574 l
423.216 216.788 l
423.92 209.94 l
424.624 198.077 l
425.328 153.628 l
426.031 194.093 l
427.439 215.176 l
428.847 223.27 l
430.254 227.002 l
430.958 227.791 l
431.662 227.964 l
432.366 227.538 l
433.07 226.488 l
434.477 222.172 l
435.885 213.216 l
436.589 204.994 l
437.997 171.033 l
438.701 199.351 l
440.108 215.948 l
441.516 222.962 l
442.924 226.103 l
443.627 226.654 l
444.331 226.601 l
445.035 225.944 l
445.739 224.643 l
447.147 219.658 l
448.554 209.285 l
449.258 199.113 l
449.962 173.407 l
452.073 211.204 l
453.481 220.076 l
454.889 224.208 l
455.593 225.154 l
456.296 225.474 l
457 225.193 l
457.704 224.299 l
459.112 220.378 l
460.52 212.178 l
461.223 204.858 l
461.927 191.648 l
462.631 133.965 l
463.335 193.152 l
464.743 212.271 l
466.15 219.94 l
467.558 223.451 l
468.262 224.154 l
468.966 224.246 l
469.669 223.737 l
470.373 222.598 l
471.781 218.044 l
473.189 208.589 l
473.892 199.71 l
474.596 180.923 l
475.3 175.313 l
476.004 197.716 l
477.412 213.047 l
478.819 219.7 l
480.227 222.637 l
480.931 223.104 l
481.635 222.969 l
482.339 222.227 l
483.042 220.832 l
484.45 215.583 l
485.154 211.161 l
485.858 204.588 l
486.562 193.428 l
487.265 159.177 l
488.673 200.889 l
490.081 213.594 l
491.488 219.368 l
492.896 221.766 l
493.6 222.003 l
493.6 222.003 l
stroke
grestore
gsave
446.4 345.6 72 43.2 clipbox
72 378.722 m
74.1115 378.357 l
76.223 377.248 l
78.3346 375.356 l
80.4461 372.603 l
82.5576 368.857 l
84.6691 363.886 l
86.7806 357.249 l
88.8922 347.964 l
90.2998 339.04 l
91.7075 324.77 l
92.4114 311.653 l
93.1152 264.592 l
93.819 306.063 l
94.5229 318.892 l
95.9306 329.904 l
97.3382 334.929 l
98.7459 337.363 l
100.154 338.222 l
101.561 337.927 l
102.969 336.673 l
104.377 334.535 l
106.488 329.632 l
108.6 322.293 l
110.007 315.458 l
111.415 305.94 l
112.823 290.237 l
113.527 274.732 l
114.23 237.501 l
114.934 276.954 l
116.342 293.097 l
117.75 298.987 l
119.157 301.366 l
119.861 301.764 l
120.565 301.759 l
121.973 300.738 l
123.38 298.553 l
124.788 295.301 l
126.899 288.409 l
129.011 278.749 l
131.123 265.31 l
132.53 253.061 l
133.938 235.944 l
135.346 206.138 l
136.049 162.603 l
136.753 179.589 l
137.457 167.824 l
139.569 218.253 l
140.976 230.998 l
142.384 237.554 l
143.792 240.53 l
144.495 240.969 l
145.199 240.76 l
145.903 239.895 l
146.607 238.318 l
148.015 232.455 l
148.719 227.481 l
149.422 219.905 l
150.126 206.013 l
150.83 165.279 l
151.534 209.585 l
152.942 227.927 l
154.349 235.416 l
155.757 238.961 l
156.461 239.771 l
157.165 240.051 l
157.868 239.838 l
158.572 239.143 l
159.98 236.232 l
161.388 230.847 l
162.795 221.422 l
163.499 213.637 l
164.203 200.339 l
164.907 113.414 l
165.611 198.644 l
167.018 217.34 l
168.426 224.125 l
169.834 226.744 l
170.538 227.021 l
171.241 226.706 l
171.945 225.818 l
173.353 222.201 l
174.761 215.38 l
176.168 202.205 l
176.872 188.564 l
177.576 125.744 l
178.28 188.692 l
179.687 206.911 l
181.095 213.606 l
182.503 216.132 l
183.207 216.337 l
183.911 215.925 l
184.614 214.903 l
186.022 210.829 l
187.43 202.965 l
188.134 196.457 l
188.837 186.029 l
189.541 160.774 l
190.245 171.163 l
190.949 188.124 l
192.357 201.114 l
193.764 206.501 l
194.468 207.791 l
195.172 208.382 l
195.876 208.348 l
196.58 207.716 l
197.987 204.561 l
199.395 198.159 l
200.099 193.008 l
200.803 185.394 l
201.507 172 l
202.21 104.86 l
202.914 172.22 l
204.322 190.859 l
205.73 197.906 l
207.137 200.783 l
207.841 201.17 l
208.545 200.948 l
209.249 200.128 l
210.656 196.533 l
212.064 189.399 l
212.768 183.546 l
213.472 174.492 l
214.176 155.988 l
214.879 147.782 l
215.583 170.839 l
216.991 185.798 l
218.399 191.917 l
219.806 194.296 l
220.51 194.484 l
221.214 194.071 l
221.918 193.053 l
223.326 188.968 l
224.733 180.95 l
225.437 174.173 l
226.141 162.939 l
226.845 130.588 l
228.252 168.817 l
229.66 181.14 l
231.068 186.427 l
232.475 188.321 l
233.179 188.307 l
233.883 187.694 l
234.587 186.464 l
235.995 181.835 l
237.402 172.763 l
238.106 164.765 l
238.81 149.991 l
239.514 118.542 l
240.218 155.362 l
241.625 172.659 l
243.033 179.507 l
244.441 182.349 l
245.145 182.736 l
245.848 182.516 l
246.552 181.695 l
247.96 178.061 l
249.368 170.742 l
250.071 164.627 l
250.775 154.898 l
251.479 132.917 l
252.183 136.1 l
252.887 155.139 l
254.294 169.099 l
255.702 175.012 l
257.11 177.329 l
257.814 177.501 l
258.518 177.074 l
259.221 176.038 l
260.629 171.875 l
262.037 163.598 l
262.741 156.461 l
263.444 144.163 l
264.148 91.3817 l
264.852 140.748 l
266.26 161.062 l
267.667 168.677 l
269.075 171.969 l
269.779 172.543 l
270.483 172.504 l
271.187 171.864 l
271.89 170.601 l
273.298 165.845 l
274.706 156.393 l
275.41 147.832 l
276.817 115.755 l
277.521 142.469 l
278.929 158.397 l
280.337 164.958 l
281.744 167.686 l
282.448 168.037 l
283.152 167.785 l
283.856 166.93 l
285.263 163.194 l
286.671 155.626 l
287.375 149.207 l
288.079 138.693 l
288.783 111.311 l
290.894 150.562 l
292.302 159.011 l
293.71 162.756 l
294.413 163.514 l
295.117 163.646 l
295.821 163.178 l
296.525 162.095 l
297.933 157.782 l
299.34 149.132 l
300.044 141.501 l
300.748 127.647 l
301.452 70.1382 l
302.156 130.294 l
303.563 148.695 l
304.971 155.942 l
306.379 159.081 l
307.082 159.606 l
307.786 159.521 l
308.49 158.837 l
309.194 157.523 l
310.602 152.613 l
312.009 142.762 l
312.713 133.605 l
313.417 113.864 l
314.121 109.026 l
314.825 131.524 l
316.232 146.472 l
317.64 152.779 l
319.048 155.38 l
319.752 155.681 l
320.455 155.377 l
321.159 154.465 l
322.567 150.56 l
323.975 142.615 l
324.678 135.737 l
325.382 123.952 l
326.086 68.9699 l
326.79 117.997 l
327.494 132.304 l
328.902 144.516 l
330.309 149.925 l
331.717 151.993 l
332.421 152.071 l
333.125 151.552 l
333.828 150.414 l
335.236 145.952 l
336.644 136.962 l
337.348 128.868 l
338.051 113.222 l
338.755 68.9868 l
339.459 120.564 l
340.867 137.956 l
342.274 144.948 l
343.682 147.95 l
344.386 148.417 l
345.09 148.274 l
345.794 147.524 l
347.201 143.999 l
348.609 136.671 l
349.313 130.402 l
350.017 120.075 l
350.721 89.7095 l
352.832 131.392 l
354.24 140.203 l
355.647 144.184 l
356.351 145.047 l
357.055 145.285 l
357.759 144.925 l
358.463 143.956 l
359.87 139.912 l
361.278 131.683 l
361.982 124.44 l
362.686 111.367 l
363.39 89.9551 l
364.797 122.596 l
366.205 134.496 l
367.613 139.754 l
369.02 141.704 l
369.724 141.719 l
370.428 141.126 l
371.132 139.897 l
372.54 135.14 l
373.947 125.377 l
374.651 116.068 l
376.059 73.8317 l
376.763 113.492 l
378.17 129.296 l
379.578 135.858 l
380.986 138.654 l
381.689 139.05 l
382.393 138.845 l
383.097 138.038 l
384.505 134.387 l
385.913 126.829 l
386.616 120.267 l
387.32 108.903 l
388.024 86.5917 l
388.728 90.3589 l
389.432 113.239 l
390.839 127.182 l
392.247 133.08 l
393.655 135.412 l
394.359 135.586 l
395.062 135.145 l
395.766 134.071 l
397.174 129.679 l
398.582 120.529 l
399.285 111.862 l
399.989 90.1928 l
400.693 90.3072 l
402.101 115.657 l
403.509 126.611 l
404.916 131.515 l
406.324 133.277 l
407.028 133.225 l
407.732 132.575 l
408.435 131.291 l
409.843 126.409 l
411.251 116.296 l
411.955 106.069 l
412.658 82.005 l
413.362 89.7982 l
414.77 113.696 l
416.178 123.948 l
417.585 128.409 l
418.289 129.41 l
418.993 129.749 l
419.697 129.459 l
420.401 128.53 l
421.808 124.445 l
423.216 115.697 l
423.92 107.269 l
424.624 82.9604 l
425.328 93.2557 l
426.031 87.2501 l
426.735 107.635 l
428.143 120.339 l
429.551 125.787 l
430.958 127.893 l
431.662 127.992 l
432.366 127.494 l
433.07 126.371 l
434.477 121.888 l
435.885 112.456 l
436.589 102.886 l
437.293 80.3433 l
437.997 94.4922 l
438.701 71.7526 l
439.404 104.114 l
440.812 117.101 l
442.22 122.318 l
442.924 123.545 l
443.627 124.062 l
444.331 123.924 l
445.035 123.127 l
445.739 121.621 l
447.147 115.811 l
447.85 110.622 l
448.554 101.782 l
449.258 73.486 l
449.962 94.548 l
450.666 86.7946 l
452.073 108.585 l
453.481 117.885 l
454.889 121.944 l
455.593 122.828 l
456.296 123.08 l
457 122.728 l
457.704 121.757 l
459.112 117.617 l
459.816 114.021 l
460.52 108.651 l
461.223 99.2403 l
461.927 82.5513 l
462.631 95.5811 l
463.335 92.9725 l
464.039 86.6128 l
464.743 103.068 l
466.15 113.539 l
467.558 117.579 l
468.262 118.312 l
468.966 118.337 l
469.669 117.663 l
470.373 116.237 l
471.077 113.912 l
471.781 110.366 l
472.485 104.786 l
473.189 93.8002 l
473.892 88.1274 l
474.596 95.7477 l
475.3 93.5137 l
476.004 78.4923 l
476.708 100.831 l
478.116 112.28 l
479.523 116.934 l
480.227 118.006 l
480.931 118.416 l
481.635 118.211 l
482.339 117.381 l
483.042 115.861 l
484.45 110.059 l
485.154 104.742 l
486.562 85.852 l
487.265 96.0634 l
487.969 96.8052 l
489.377 84.1838 l
490.081 99.7002 l
491.488 109.036 l
492.896 112.12 l
493.6 112.34 l
493.6 112.34 l
stroke
grestore
0 setlinecap
[6 6] 0 setdash
gsave
446.4 345.6 72 43.2 clipbox
84.4 388.8 m
92.751 369.479 l
101.102 356.789 l
109.453 347.322 l
117.804 339.77 l
126.155 333.485 l
134.506 328.104 l
142.857 323.398 l
151.208 319.218 l
159.559 315.457 l
167.91 312.039 l
176.261 308.906 l
184.612 306.015 l
192.963 303.33 l
201.314 300.825 l
209.665 298.477 l
218.016 296.267 l
226.367 294.18 l
234.718 292.204 l
243.069 290.326 l
251.42 288.537 l
259.771 286.83 l
268.122 285.197 l
276.473 283.633 l
284.824 282.131 l
293.176 280.686 l
301.527 279.296 l
309.878 277.955 l
318.229 276.66 l
326.58 275.408 l
334.931 274.197 l
343.282 273.024 l
351.633 271.886 l
359.984 270.782 l
368.335 269.71 l
376.686 268.667 l
385.037 267.652 l
393.388 266.664 l
401.739 265.702 l
410.09 264.763 l
418.441 263.848 l
426.792 262.954 l
435.143 262.081 l
443.494 261.228 l
451.845 260.394 l
460.196 259.578 l
468.547 258.779 l
476.898 257.997 l
485.249 257.231 l
493.6 256.48 l
stroke
grestore
[3 5 1 5] 0 setdash
gsave
446.4 345.6 72 43.2 clipbox
84.4 388.8 m
92.751 350.159 l
101.102 324.777 l
109.453 305.845 l
117.804 290.739 l
126.155 278.17 l
134.506 267.408 l
142.857 257.997 l
151.208 249.636 l
159.559 242.114 l
167.91 235.277 l
176.261 229.012 l
184.612 223.229 l
192.963 217.861 l
201.314 212.851 l
209.665 208.154 l
218.016 203.735 l
226.367 199.561 l
234.718 195.607 l
243.069 191.851 l
251.42 188.274 l
259.771 184.86 l
268.122 181.595 l
276.473 178.465 l
284.824 175.461 l
293.176 172.573 l
301.527 169.791 l
309.878 167.109 l
318.229 164.52 l
326.58 162.017 l
334.931 159.595 l
343.282 157.248 l
351.633 154.973 l
359.984 152.764 l
368.335 150.619 l
376.686 148.534 l
385.037 146.504 l
393.388 144.529 l
401.739 142.603 l
410.09 140.727 l
418.441 138.895 l
426.792 137.108 l
435.143 135.362 l
443.494 133.656 l
451.845 131.987 l
460.196 130.355 l
468.547 128.758 l
476.898 127.194 l
485.249 125.662 l
493.6 124.16 l
stroke
grestore
0.500 setlinewidth
[] 0 setdash
gsave
/o {
gsave
newpath
translate
0 0 m
0 4 l
stroke
grestore
} bind def
72 43.2 o
grestore
gsave
/o {
gsave
newpath
translate
0 0 m
0 -4 l
stroke
grestore
} bind def
72 388.8 o
grestore
/DejaVuSans findfont
12.000 scalefont
setfont
gsave
68.976562 30.121875 translate
0.000000 rotate
0.000000 0.171875 m /zero glyphshow
grestore
gsave
/o {
gsave
newpath
translate
0 0 m
0 4 l
stroke
grestore
} bind def
121.6 43.2 o
grestore
gsave
/o {
gsave
newpath
translate
0 0 m
0 -4 l
stroke
grestore
} bind def
121.6 388.8 o
grestore
gsave
118.818750 30.293750 translate
0.000000 rotate
0.000000 0.000000 m /two glyphshow
grestore
gsave
/o {
gsave
newpath
translate
0 0 m
0 4 l
stroke
grestore
} bind def
171.2 43.2 o
grestore
gsave
/o {
gsave
newpath
translate
0 0 m
0 -4 l
stroke
grestore
} bind def
171.2 388.8 o
grestore
gsave
168.012500 30.450000 translate
0.000000 rotate
0.000000 0.000000 m /four glyphshow
grestore
gsave
/o {
gsave
newpath
translate
0 0 m
0 4 l
stroke
grestore
} bind def
220.8 43.2 o
grestore
gsave
/o {
gsave
newpath
translate
0 0 m
0 -4 l
stroke
grestore
} bind def
220.8 388.8 o
grestore
gsave
217.784375 30.121875 translate
0.000000 rotate
0.000000 0.171875 m /six glyphshow
grestore
gsave
/o {
gsave
newpath
translate
0 0 m
0 4 l
stroke
grestore
} bind def
270.4 43.2 o
grestore
gsave
/o {
gsave
newpath
translate
0 0 m
0 -4 l
stroke
grestore
} bind def
270.4 388.8 o
grestore
gsave
267.400000 30.121875 translate
0.000000 rotate
0.000000 0.171875 m /eight glyphshow
grestore
gsave
/o {
gsave
newpath
translate
0 0 m
0 4 l
stroke
grestore
} bind def
320 43.2 o
grestore
gsave
/o {
gsave
newpath
translate
0 0 m
0 -4 l
stroke
grestore
} bind def
320 388.8 o
grestore
gsave
313.414062 30.121875 translate
0.000000 rotate
0.000000 0.171875 m /one glyphshow
7.634766 0.171875 m /zero glyphshow
grestore
gsave
/o {
gsave
newpath
translate
0 0 m
0 4 l
stroke
grestore
} bind def
369.6 43.2 o
grestore
gsave
/o {
gsave
newpath
translate
0 0 m
0 -4 l
stroke
grestore
} bind def
369.6 388.8 o
grestore
gsave
363.217187 30.293750 translate
0.000000 rotate
0.000000 0.000000 m /one glyphshow
7.634766 0.000000 m /two glyphshow
grestore
gsave
/o {
gsave
newpath
translate
0 0 m
0 4 l
stroke
grestore
} bind def
419.2 43.2 o
grestore
gsave
/o {
gsave
newpath
translate
0 0 m
0 -4 l
stroke
grestore
} bind def
419.2 388.8 o
grestore
gsave
412.551562 30.450000 translate
0.000000 rotate
0.000000 0.000000 m /one glyphshow
7.634766 0.000000 m /four glyphshow
grestore
gsave
/o {
gsave
newpath
translate
0 0 m
0 4 l
stroke
grestore
} bind def
468.8 43.2 o
grestore
gsave
/o {
gsave
newpath
translate
0 0 m
0 -4 l
stroke
grestore
} bind def
468.8 388.8 o
grestore
gsave
462.198437 30.121875 translate
0.000000 rotate
0.000000 0.171875 m /one glyphshow
7.634766 0.171875 m /six glyphshow
grestore
gsave
/o {
gsave
newpath
translate
0 0 m
0 4 l
stroke
grestore
} bind def
518.4 43.2 o
grestore
gsave
/o {
gsave
newpath
translate
0 0 m
0 -4 l
stroke
grestore
} bind def
518.4 388.8 o
grestore
gsave
511.829687 30.121875 translate
0.000000 rotate
0.000000 0.171875 m /one glyphshow
7.634766 0.171875 m /eight glyphshow
grestore
gsave
288.700000 13.121875 translate
0.000000 rotate
/Cmmi10 findfont
12.0 scalefont
setfont
0.000000 3.531250 moveto
/f glyphshow

5.865234 3.531250 moveto
/T glyphshow


grestore
gsave
/o {
gsave
newpath
translate
0 0 m
4 0 l
stroke
grestore
} bind def
72 43.2 o
grestore
gsave
/o {
gsave
newpath
translate
0 0 m
-4 0 l
stroke
grestore
} bind def
518.4 43.2 o
grestore
gsave
37.078125 38.660937 translate
0.000000 rotate
0.000000 0.171875 m /minus glyphshow
10.054688 0.171875 m /one glyphshow
17.689453 0.171875 m /six glyphshow
25.324219 0.171875 m /zero glyphshow
grestore
gsave
/o {
gsave
newpath
translate
0 0 m
4 0 l
stroke
grestore
} bind def
72 86.4 o
grestore
gsave
/o {
gsave
newpath
translate
0 0 m
-4 0 l
stroke
grestore
} bind def
518.4 86.4 o
grestore
gsave
37.078125 81.860937 translate
0.000000 rotate
0.000000 0.171875 m /minus glyphshow
10.054688 0.171875 m /one glyphshow
17.689453 0.171875 m /four glyphshow
25.324219 0.171875 m /zero glyphshow
grestore
gsave
/o {
gsave
newpath
translate
0 0 m
4 0 l
stroke
grestore
} bind def
72 129.6 o
grestore
gsave
/o {
gsave
newpath
translate
0 0 m
-4 0 l
stroke
grestore
} bind def
518.4 129.6 o
grestore
gsave
37.078125 125.060937 translate
0.000000 rotate
0.000000 0.171875 m /minus glyphshow
10.054688 0.171875 m /one glyphshow
17.689453 0.171875 m /two glyphshow
25.324219 0.171875 m /zero glyphshow
grestore
gsave
/o {
gsave
newpath
translate
0 0 m
4 0 l
stroke
grestore
} bind def
72 172.8 o
grestore
gsave
/o {
gsave
newpath
translate
0 0 m
-4 0 l
stroke
grestore
} bind def
518.4 172.8 o
grestore
gsave
37.078125 168.260938 translate
0.000000 rotate
0.000000 0.171875 m /minus glyphshow
10.054688 0.171875 m /one glyphshow
17.689453 0.171875 m /zero glyphshow
25.324219 0.171875 m /zero glyphshow
grestore
gsave
/o {
gsave
newpath
translate
0 0 m
4 0 l
stroke
grestore
} bind def
72 216 o
grestore
gsave
/o {
gsave
newpath
translate
0 0 m
-4 0 l
stroke
grestore
} bind def
518.4 216 o
grestore
gsave
44.718750 211.460938 translate
0.000000 rotate
0.000000 0.171875 m /minus glyphshow
10.054688 0.171875 m /eight glyphshow
17.689453 0.171875 m /zero glyphshow
grestore
gsave
/o {
gsave
newpath
translate
0 0 m
4 0 l
stroke
grestore
} bind def
72 259.2 o
grestore
gsave
/o {
gsave
newpath
translate
0 0 m
-4 0 l
stroke
grestore
} bind def
518.4 259.2 o
grestore
gsave
44.718750 254.660937 translate
0.000000 rotate
0.000000 0.171875 m /minus glyphshow
10.054688 0.171875 m /six glyphshow
17.689453 0.171875 m /zero glyphshow
grestore
gsave
/o {
gsave
newpath
translate
0 0 m
4 0 l
stroke
grestore
} bind def
72 302.4 o
grestore
gsave
/o {
gsave
newpath
translate
0 0 m
-4 0 l
stroke
grestore
} bind def
518.4 302.4 o
grestore
gsave
44.718750 297.860937 translate
0.000000 rotate
0.000000 0.171875 m /minus glyphshow
10.054688 0.171875 m /four glyphshow
17.689453 0.171875 m /zero glyphshow
grestore
gsave
/o {
gsave
newpath
translate
0 0 m
4 0 l
stroke
grestore
} bind def
72 345.6 o
grestore
gsave
/o {
gsave
newpath
translate
0 0 m
-4 0 l
stroke
grestore
} bind def
518.4 345.6 o
grestore
gsave
44.718750 341.060938 translate
0.000000 rotate
0.000000 0.171875 m /minus glyphshow
10.054688 0.171875 m /two glyphshow
17.689453 0.171875 m /zero glyphshow
grestore
gsave
/o {
gsave
newpath
translate
0 0 m
4 0 l
stroke
grestore
} bind def
72 388.8 o
grestore
gsave
/o {
gsave
newpath
translate
0 0 m
-4 0 l
stroke
grestore
} bind def
518.4 388.8 o
grestore
gsave
61.953125 384.260938 translate
0.000000 rotate
0.000000 0.171875 m /zero glyphshow
grestore
gsave
32.078125 153.500000 translate
90.000000 rotate
/Cmmi10 findfont
12.0 scalefont
setfont
0.000000 3.937500 moveto
/D glyphshow

9.925781 3.937500 moveto
/e glyphshow

15.503906 3.937500 moveto
/n glyphshow

22.705078 3.937500 moveto
/s glyphshow

28.318359 3.937500 moveto
/i glyphshow

32.449219 3.937500 moveto
/t glyphshow

/Cmr10 findfont
12.0 scalefont
setfont
37.498047 4.625000 moveto
/grave glyphshow

/Cmmi10 findfont
12.0 scalefont
setfont
36.779297 3.937500 moveto
/a glyphshow

47.327344 3.937500 moveto
/S glyphshow

54.680859 3.937500 moveto
/p glyphshow

60.716016 3.937500 moveto
/e glyphshow

66.294141 3.937500 moveto
/t glyphshow

70.624219 3.937500 moveto
/t glyphshow

74.954297 3.937500 moveto
/r glyphshow

80.368359 3.937500 moveto
/a glyphshow

86.702344 3.937500 moveto
/l glyphshow

90.276562 3.937500 moveto
/e glyphshow

/Cmr10 findfont
12.0 scalefont
setfont
100.068750 3.937500 moveto
/parenleft glyphshow

/Cmmi10 findfont
12.0 scalefont
setfont
104.726953 3.937500 moveto
/d glyphshow

110.967187 3.937500 moveto
/B glyphshow

/Cmr10 findfont
12.0 scalefont
setfont
120.060937 3.937500 moveto
/parenright glyphshow


grestore
1.000 setlinewidth
2 setlinecap
gsave
72 388.8 m
518.4 388.8 l
stroke
grestore
gsave
518.4 43.2 m
518.4 388.8 l
stroke
grestore
gsave
72 43.2 m
518.4 43.2 l
stroke
grestore
gsave
72 43.2 m
72 388.8 l
stroke
grestore
270.4 263.52 m
0 0.172 rmoveto
(1REC) show
220.8 108 m
0 0.172 rmoveto
(1RC) show
gsave
428.36 326.88 m
511.2 326.88 l
511.2 381.6 l
428.36 381.6 l
428.36 326.88 l
cl
gsave
1.000 setgray
fill
grestore
stroke
grestore
0 setlinecap
[6 6] 0 setdash
gsave
438.44 366.88 m
458.6 366.88 l
stroke
grestore
gsave
474.440000 357.840000 translate
0.000000 rotate
/Cmsy10 findfont
14.4 scalefont
setfont
0.000000 4.171788 moveto
/bar glyphshow

/Cmmi10 findfont
14.4 scalefont
setfont
3.984116 4.171788 moveto
/f glyphshow

/Cmsy10 findfont
14.4 scalefont
setfont
11.017807 4.171788 moveto
/bar glyphshow

/Cmsy10 findfont
10.08 scalefont
setfont
15.001923 11.295313 moveto
/minus glyphshow

/Cmr10 findfont
10.08 scalefont
setfont
22.827522 11.295313 moveto
/four glyphshow


grestore
[3 5 1 5] 0 setdash
gsave
438.44 341.68 m
458.6 341.68 l
stroke
grestore
gsave
474.440000 332.640000 translate
0.000000 rotate
/Cmsy10 findfont
14.4 scalefont
setfont
0.000000 4.171788 moveto
/bar glyphshow

/Cmmi10 findfont
14.4 scalefont
setfont
3.984116 4.171788 moveto
/f glyphshow

/Cmsy10 findfont
14.4 scalefont
setfont
11.017807 4.171788 moveto
/bar glyphshow

/Cmsy10 findfont
10.08 scalefont
setfont
15.001923 11.295313 moveto
/minus glyphshow

/Cmr10 findfont
10.08 scalefont
setfont
22.827522 11.295313 moveto
/eight glyphshow


grestore

end
showpage
